\babel@toc {french}{}
\contentsline {chapter}{\numberline {1}Glossaire}{1}{chapter.1}% 
\contentsline {chapter}{\numberline {2}Indices and tables}{7}{chapter.2}% 
\contentsline {chapter}{Index}{9}{section*.60}% 
