#FIG 3.2
Landscape
Center
Inches
Letter  
100.00
Single
-2
1200 2
1 1 0 1 0 7 0 0 -1 0.000 1 0.0000 1125 2625 375 150 1125 2625 750 2775
1 1 0 1 0 7 0 0 -1 0.000 1 0.0000 1125 3450 375 150 1125 3450 750 3600
2 1 0 1 0 7 0 0 -1 0.000 0 0 -1 0 0 2
	 750 2625 750 3450
2 1 0 1 0 7 0 0 -1 0.000 0 0 -1 0 0 2
	 1500 2700 1500 3450
2 1 0 1 0 7 0 0 -1 0.000 0 0 -1 0 0 2
	 2850 1800 2700 2025
2 1 0 1 0 7 0 0 -1 0.000 0 0 -1 0 0 2
	 2850 1800 2850 2100
2 2 0 1 0 7 0 0 -1 0.000 0 0 -1 0 0 5
	 2175 1425 3525 1425 3525 1800 2175 1800 2175 1425
2 1 0 1 0 7 0 0 -1 0.000 0 0 -1 0 0 2
	 3525 1650 4050 1650
2 2 0 1 0 7 0 0 -1 0.000 0 0 -1 0 0 5
	 4050 1125 4950 1125 4950 1950 4050 1950 4050 1125
2 1 0 1 0 7 0 0 -1 0.000 0 0 -1 0 0 2
	 4950 1650 5550 1650
2 2 0 1 0 7 0 0 -1 0.000 0 0 -1 0 0 5
	 5550 1425 7125 1425 7125 1800 5550 1800 5550 1425
3 2 0 1 0 7 0 0 -1 0.000 0 0 0 3
	 1200 3000 2475 2700 2850 1800
	 0.000 -1.000 0.000
4 0 0 0 0 0 12 0.0000 4 135 120 975 3150 R\001
4 0 0 0 0 0 12 0.0000 4 180 1170 2250 1650 tampon Entree E\001
4 0 0 0 0 0 12 0.0000 4 180 1185 5775 1650 tampon Sortie  S\001
4 0 0 0 0 0 12 0.0000 4 180 525 4200 1575 sel/proj\001
