#FIG 3.2
Portrait
Center
Inches
A4      
100.00
Single
-2
1200 2
6 750 675 2250 1425
1 1 0 1 -1 7 0 0 -1 0.000 1 0.0000 1500 1050 750 375 1500 1050 2250 1425
2 2 0 1 0 7 50 0 0 0.000 0 0 -1 0 0 5
	 1875 825 1950 825 1950 900 1875 900 1875 825
2 2 0 1 0 7 50 0 0 0.000 0 0 -1 0 0 5
	 1875 1200 1950 1200 1950 1275 1875 1275 1875 1200
4 0 0 50 0 0 10 0.0000 4 105 825 1050 1275 Salle Kino-3\001
4 0 0 100 0 0 10 0.0000 4 105 780 1125 900 Salle Rex-1\001
-6
1 1 0 1 -1 7 0 0 -1 0.000 1 0.0000 4500 975 825 450 4500 975 5325 1425
1 3 0 1 0 7 50 0 0 0.000 1 0.0000 3053 848 56 56 3053 848 3075 900
1 3 0 1 0 7 50 0 0 0.000 1 0.0000 2753 623 56 56 2753 623 2775 675
1 1 0 1 -1 7 0 0 -1 0.000 1 0.0000 2925 150 750 300 2925 150 3675 450
1 3 0 1 0 7 50 0 0 0.000 1 0.0000 2678 1148 56 56 2678 1148 2700 1200
2 1 0 1 0 7 50 0 0 0.000 0 0 -1 0 0 2
	 1950 1200 2625 1200
2 1 0 1 0 7 50 0 0 0.000 0 0 -1 0 0 2
	 2700 1125 3150 300
2 1 0 1 0 7 50 0 0 0.000 0 0 -1 0 0 2
	 2700 300 3075 825
2 1 0 1 0 7 50 0 0 0.000 0 0 -1 0 0 2
	 3075 825 3975 1125
2 1 0 1 0 7 50 0 0 0.000 0 0 -1 0 0 2
	 1950 825 2775 600
2 1 0 1 0 7 50 0 0 0.000 0 0 -1 0 0 2
	 2625 300 2775 600
2 1 0 1 0 7 50 0 0 0.000 0 0 -1 0 0 2
	 2775 600 3975 825
2 1 0 1 0 7 50 0 0 0.000 0 0 -1 0 0 2
	 1950 900 3000 900
2 2 0 1 0 7 50 0 0 0.000 0 0 -1 0 0 5
	 3975 825 4050 825 4050 900 3975 900 3975 825
2 2 0 1 0 7 50 0 0 0.000 0 0 -1 0 0 5
	 2625 225 2700 225 2700 300 2625 300 2625 225
2 2 0 1 0 7 50 0 0 0.000 0 0 -1 0 0 5
	 3150 225 3225 225 3225 300 3150 300 3150 225
2 2 0 1 0 7 50 0 0 0.000 0 0 -1 0 0 5
	 3975 1125 4050 1125 4050 1200 3975 1200 3975 1125
2 1 0 1 0 7 50 0 0 0.000 0 0 -1 0 0 2
	 2701 1117 3975 1125
4 0 0 100 0 0 10 0.0000 4 135 765 4125 900 Impitoyable\001
4 0 0 100 0 0 10 0.0000 4 135 495 4125 1200 Vertigo\001
4 0 0 50 0 0 10 0.0000 4 105 555 2400 150 14h-16h\001
4 0 0 50 0 0 10 0.0000 4 105 555 3000 150 16h-18h\001
4 0 0 50 0 0 10 0.0000 4 105 540 1800 -75 Horaires\001
4 0 0 50 0 0 10 0.0000 4 105 375 1275 600 Salles\001
4 0 0 50 0 0 10 0.0000 4 105 375 4350 450 Films\001
