#FIG 3.2
Landscape
Center
Inches
A4      
100.00
Single
-2
1200 2
2 1 0 1 0 7 100 0 -1 0.000 0 0 -1 1 0 4
	1 1 1.00 60.00 120.00
	 825 1950 1200 1950 1200 1275 1500 1275
2 1 0 1 0 7 100 0 -1 0.000 0 0 -1 0 0 2
	 375 2025 825 2025
2 2 0 1 0 7 100 0 -1 0.000 0 0 -1 0 0 5
	 375 1800 825 1800 825 2700 375 2700 375 1800
2 1 0 1 0 7 100 0 -1 0.000 0 0 -1 0 0 2
	 375 2475 825 2475
2 1 0 1 0 7 100 0 -1 0.000 0 0 -1 0 0 2
	 375 2250 825 2250
2 1 0 1 0 7 100 0 -1 0.000 0 0 -1 1 0 3
	1 1 1.00 60.00 120.00
	 525 2700 525 3750 1500 3750
2 1 0 1 0 7 100 0 -1 0.000 0 0 -1 1 0 4
	1 1 1.00 60.00 120.00
	 825 2400 1125 2400 1125 2925 1500 2925
2 1 0 1 0 7 100 0 -1 0.000 0 0 -1 1 0 2
	1 1 1.00 60.00 120.00
	 825 2175 1500 2175
2 2 0 1 0 7 100 0 -1 0.000 0 0 -1 0 0 5
	 1500 1950 2400 1950 2400 2550 1500 2550 1500 1950
2 2 0 1 0 7 100 0 -1 0.000 0 0 -1 0 0 5
	 1500 1200 2400 1200 2400 1800 1500 1800 1500 1200
2 2 0 1 0 7 100 0 -1 0.000 0 0 -1 0 0 5
	 1500 2625 2400 2625 2400 3225 1500 3225 1500 2625
2 2 0 1 0 7 100 0 -1 0.000 0 0 -1 0 0 5
	 1500 3375 2400 3375 2400 3975 1500 3975 1500 3375
2 4 0 0 0 7 300 0 20 0.000 0 0 7 0 0 5
	 2625 4125 2625 1050 225 1050 225 4125 2625 4125
4 0 0 100 0 0 10 0.0000 4 105 150 525 1950 00\001
4 0 0 100 0 0 10 0.0000 4 105 150 525 2175 01\001
4 0 0 100 0 0 10 0.0000 4 105 150 525 2400 10\001
4 0 0 100 0 0 10 0.0000 4 105 150 525 2625 11\001
4 0 0 100 0 0 10 0.0000 4 135 555 1575 2475 Psychose\001
4 0 0 100 0 0 10 0.0000 4 135 660 1650 1350 Easy Rider\001
4 0 0 100 0 0 10 0.0000 4 135 825 1575 2325 Underground\001
4 0 0 100 0 0 10 0.0000 4 135 495 1575 2175 Vertigo\001
4 0 0 100 0 0 10 0.0000 4 105 390 1575 2850 Brazil\001
4 0 0 100 0 0 10 0.0000 4 135 630 1575 3075 Greystoke\001
4 0 0 100 0 0 10 0.0000 4 105 705 1575 3600 Twin Peaks\001
4 0 0 100 0 0 10 0.0000 4 135 465 1575 3825 Shining\001
