#FIG 3.2  Produced by xfig version 3.2.5-alpha5
Landscape
Center
Metric
A4      
100.00
Single
-2
1200 2
6 495 1710 990 1845
4 0 0 100 0 0 10 0.0000 4 105 105 495 1845 2 \001
4 0 0 100 0 0 10 0.0000 4 105 75 720 1845 3\001
4 0 0 100 0 0 10 0.0000 4 105 75 900 1845 5\001
-6
6 1170 1710 1485 1845
4 0 0 100 0 0 10 0.0000 4 105 75 1170 1845 7\001
4 0 0 100 0 0 10 0.0000 4 105 150 1305 1845 11\001
-6
6 1665 1710 2295 1845
4 0 0 100 0 0 10 0.0000 4 105 150 1665 1845 13\001
4 0 0 100 0 0 10 0.0000 4 105 150 1890 1845 17\001
4 0 0 100 0 0 10 0.0000 4 105 150 2115 1845 19\001
-6
6 2385 1710 2790 1845
4 0 0 100 0 0 10 0.0000 4 105 150 2385 1845 23\001
4 0 0 100 0 0 10 0.0000 4 105 150 2610 1845 29\001
-6
6 2880 1710 3510 1845
4 0 0 100 0 0 10 0.0000 4 105 150 2880 1845 31\001
4 0 0 100 0 0 10 0.0000 4 105 150 3105 1845 37\001
4 0 0 100 0 0 10 0.0000 4 105 150 3330 1845 41\001
-6
6 3645 1710 4050 1845
4 0 0 100 0 0 10 0.0000 4 105 150 3645 1845 43\001
4 0 0 100 0 0 10 0.0000 4 105 150 3870 1845 47\001
-6
2 2 0 1 0 7 100 0 -1 0.000 0 0 -1 0 0 5
	 450 1665 1035 1665 1035 1935 450 1935 450 1665
2 2 0 1 0 7 100 0 -1 0.000 0 0 -1 0 0 5
	 1125 1665 1530 1665 1530 1935 1125 1935 1125 1665
2 2 0 1 0 7 100 0 -1 0.000 0 0 -1 0 0 5
	 1620 1665 2295 1665 2295 1935 1620 1935 1620 1665
2 2 0 1 0 7 100 0 -1 0.000 0 0 -1 0 0 5
	 2340 1665 2790 1665 2790 1935 2340 1935 2340 1665
2 2 0 1 0 7 100 0 -1 0.000 0 0 -1 0 0 5
	 2835 1665 3510 1665 3510 1935 2835 1935 2835 1665
2 2 0 1 0 7 100 0 -1 0.000 0 0 -1 0 0 5
	 3600 1665 4095 1665 4095 1935 3600 1935 3600 1665
2 2 0 1 0 7 100 0 -1 0.000 0 0 -1 0 0 5
	 990 1305 1440 1305 1440 1485 990 1485 990 1305
2 2 0 1 0 7 100 0 -1 0.000 0 0 -1 0 0 5
	 2700 1260 3330 1260 3330 1485 2700 1485 2700 1260
2 2 0 1 0 7 100 0 -1 0.000 0 0 -1 0 0 5
	 1800 945 2385 945 2385 1125 1800 1125 1800 945
2 2 0 1 0 7 100 0 -1 0.000 0 0 -1 0 0 5
	 450 2115 4095 2115 4095 2295 450 2295 450 2115
2 1 0 1 0 7 100 0 -1 0.000 0 0 -1 0 0 4
	 4050 810 4185 810 4185 2025 4095 2025
2 1 0 1 0 7 100 0 -1 0.000 0 0 -1 1 0 4
	1 1 1.00 60.00 120.00
	 765 1935 765 2025 1800 2025 1800 2205
2 1 0 1 0 7 100 0 -1 0.000 0 0 -1 1 0 4
	1 1 1.00 60.00 120.00
	 2430 1890 2430 2025 2970 2025 2970 2205
2 1 0 1 0 7 100 0 -1 0.000 0 0 -1 1 0 4
	1 1 1.00 60.00 120.00
	 2970 1890 2970 1980 1350 1980 1350 2160
2 1 0 1 0 7 100 0 -1 0.000 0 0 7 1 0 2
	1 1 1.00 60.00 120.00
	 1035 1485 855 1665
2 1 0 1 0 7 100 0 -1 0.000 0 0 7 1 0 2
	1 1 1.00 60.00 120.00
	 1260 1485 1260 1665
2 1 0 1 0 7 100 0 -1 0.000 0 0 7 1 0 2
	1 1 1.00 60.00 120.00
	 1440 1485 1755 1665
2 1 0 1 0 7 100 0 -1 0.000 0 0 7 1 0 2
	1 1 1.00 60.00 120.00
	 1800 1125 1440 1305
2 1 0 1 0 7 100 0 -1 0.000 0 0 7 1 0 2
	1 1 1.00 60.00 120.00
	 2385 1125 2700 1260
2 1 0 1 0 7 100 0 -1 0.000 0 0 7 1 0 2
	1 1 1.00 60.00 120.00
	 2700 1485 2565 1665
2 1 0 1 0 7 100 0 -1 0.000 0 0 7 1 0 2
	1 1 1.00 60.00 120.00
	 3015 1485 3015 1665
2 1 0 1 0 7 100 0 -1 0.000 0 0 7 1 0 2
	1 1 1.00 60.00 120.00
	 3330 1485 3735 1665
2 1 0 1 0 7 100 0 -1 0.000 0 0 -1 0 0 2
	 1035 1845 1125 1845
2 1 0 1 0 7 100 0 -1 0.000 0 0 -1 0 0 2
	 1530 1845 1620 1845
2 1 0 1 0 7 100 0 -1 0.000 0 0 -1 0 0 2
	 2295 1845 2340 1845
2 1 0 1 0 7 100 0 -1 0.000 0 0 -1 0 0 2
	 2790 1845 2835 1845
2 1 0 1 0 7 100 0 -1 0.000 0 0 -1 0 0 1
	 2880 1845
2 1 0 1 0 7 100 0 -1 0.000 0 0 -1 0 0 2
	 3510 1845 3600 1845
2 1 0 1 0 7 100 0 -1 0.000 0 0 -1 1 0 4
	1 1 1.00 60.00 120.00
	 2655 1935 2655 2070 2340 2070 2340 2205
2 1 0 1 0 7 100 0 -1 0.000 0 0 -1 0 0 2
	 810 2115 810 2295
2 1 0 1 0 7 100 0 -1 0.000 0 0 -1 0 0 2
	 1710 2115 1710 2295
2 1 0 1 0 7 100 0 -1 0.000 0 0 -1 0 0 2
	 2115 2115 2115 2295
2 1 0 1 0 7 100 0 -1 0.000 0 0 -1 0 0 2
	 2610 2115 2610 2295
2 1 0 1 0 7 100 0 -1 0.000 0 0 -1 0 0 2
	 3195 2115 3195 2295
2 1 0 1 0 7 100 0 -1 0.000 0 0 -1 0 0 2
	 3600 2115 3600 2295
2 1 0 1 0 7 100 0 -1 0.000 0 0 -1 0 0 2
	 1215 2115 1215 2295
4 0 0 100 0 0 10 0.0000 4 105 150 1260 1440 11\001
4 0 0 100 0 0 10 0.0000 4 105 75 1035 1440 5\001
4 0 0 100 0 0 10 0.0000 4 105 150 2160 1080 19\001
4 0 0 100 0 0 10 0.0000 4 105 150 2790 1440 29\001
4 0 0 100 0 0 10 0.0000 4 105 150 3105 1440 41\001
4 0 0 100 0 0 10 4.7124 4 105 585 4275 1080 Arbre B+\001
4 0 0 100 0 0 10 0.0000 4 105 435 1800 2520 Fichier\001
4 0 0 100 0 0 10 0.0000 4 105 75 1890 2250 3\001
4 0 0 100 0 0 10 0.0000 4 105 150 1395 2250 31\001
4 0 0 100 0 0 10 0.0000 4 105 150 3015 2250 23\001
4 0 0 100 0 0 10 0.0000 4 105 150 2340 2250 29\001
4 0 0 100 0 0 10 0.0000 4 105 150 945 2250 19\001
4 0 0 100 0 0 10 0.0000 4 105 150 3735 2250 17\001
