%!PS-Adobe-2.0 EPSF-2.0
%%Title: idxmultiniv.eps
%%Creator: fig2dev Version 3.2 Patchlevel 1
%%CreationDate: Mon May 28 08:20:02 2001
%%For: rigaux@cartier ()
%%Orientation: Portrait
%%BoundingBox: 0 0 313 245
%%Pages: 0
%%BeginSetup
%%EndSetup
%%Magnification: 1.0000
%%EndComments
/$F2psDict 200 dict def
$F2psDict begin
$F2psDict /mtrx matrix put
/col-1 {0 setgray} bind def
/col0 {0.000 0.000 0.000 srgb} bind def
/col1 {0.000 0.000 1.000 srgb} bind def
/col2 {0.000 1.000 0.000 srgb} bind def
/col3 {0.000 1.000 1.000 srgb} bind def
/col4 {1.000 0.000 0.000 srgb} bind def
/col5 {1.000 0.000 1.000 srgb} bind def
/col6 {1.000 1.000 0.000 srgb} bind def
/col7 {1.000 1.000 1.000 srgb} bind def
/col8 {0.000 0.000 0.560 srgb} bind def
/col9 {0.000 0.000 0.690 srgb} bind def
/col10 {0.000 0.000 0.820 srgb} bind def
/col11 {0.530 0.810 1.000 srgb} bind def
/col12 {0.000 0.560 0.000 srgb} bind def
/col13 {0.000 0.690 0.000 srgb} bind def
/col14 {0.000 0.820 0.000 srgb} bind def
/col15 {0.000 0.560 0.560 srgb} bind def
/col16 {0.000 0.690 0.690 srgb} bind def
/col17 {0.000 0.820 0.820 srgb} bind def
/col18 {0.560 0.000 0.000 srgb} bind def
/col19 {0.690 0.000 0.000 srgb} bind def
/col20 {0.820 0.000 0.000 srgb} bind def
/col21 {0.560 0.000 0.560 srgb} bind def
/col22 {0.690 0.000 0.690 srgb} bind def
/col23 {0.820 0.000 0.820 srgb} bind def
/col24 {0.500 0.190 0.000 srgb} bind def
/col25 {0.630 0.250 0.000 srgb} bind def
/col26 {0.750 0.380 0.000 srgb} bind def
/col27 {1.000 0.500 0.500 srgb} bind def
/col28 {1.000 0.630 0.630 srgb} bind def
/col29 {1.000 0.750 0.750 srgb} bind def
/col30 {1.000 0.880 0.880 srgb} bind def
/col31 {1.000 0.840 0.000 srgb} bind def

end
save
-48.0 262.0 translate
1 -1 scale

/cp {closepath} bind def
/ef {eofill} bind def
/gr {grestore} bind def
/gs {gsave} bind def
/sa {save} bind def
/rs {restore} bind def
/l {lineto} bind def
/m {moveto} bind def
/rm {rmoveto} bind def
/n {newpath} bind def
/s {stroke} bind def
/sh {show} bind def
/slc {setlinecap} bind def
/slj {setlinejoin} bind def
/slw {setlinewidth} bind def
/srgb {setrgbcolor} bind def
/rot {rotate} bind def
/sc {scale} bind def
/sd {setdash} bind def
/ff {findfont} bind def
/sf {setfont} bind def
/scf {scalefont} bind def
/sw {stringwidth} bind def
/tr {translate} bind def
/tnt {dup dup currentrgbcolor
  4 -2 roll dup 1 exch sub 3 -1 roll mul add
  4 -2 roll dup 1 exch sub 3 -1 roll mul add
  4 -2 roll dup 1 exch sub 3 -1 roll mul add srgb}
  bind def
/shd {dup dup currentrgbcolor 4 -2 roll mul 4 -2 roll mul
  4 -2 roll mul srgb} bind def
/$F2psBegin {$F2psDict begin /$F2psEnteredState save def} def
/$F2psEnd {$F2psEnteredState restore end} def
%%EndProlog

$F2psBegin
10 setmiterlimit
n -1000 5362 m -1000 -1000 l 7012 -1000 l 7012 5362 l cp clip
 0.06000 0.06000 sc
% Polyline
30.000 slw
n 2550 1500 m 3300 1500 l gs col0 s gr 
% Polyline
n 2550 2400 m 3300 2400 l gs col0 s gr 
% Polyline
n 2550 3300 m 3300 3300 l gs col0 s gr 
% Polyline
7.500 slw
n 825 1650 m 1575 1650 l 1575 1875 l 825 1875 l cp gs col0 s gr 
% Polyline
n 1275 1650 m 1275 1875 l gs col0 s gr 
% Polyline
n 3000 825 m 3000 1050 l gs col0 s gr 
% Polyline
n 2550 825 m 3300 825 l 3300 1050 l 2550 1050 l cp gs col0 s gr 
% Polyline
n 3000 1050 m 3000 1275 l gs col0 s gr 
% Polyline
n 2550 1050 m 3300 1050 l 3300 1275 l 2550 1275 l cp gs col0 s gr 
% Polyline
n 3000 1275 m 3000 1500 l gs col0 s gr 
% Polyline
n 2550 1275 m 3300 1275 l 3300 1500 l 2550 1500 l cp gs col0 s gr 
% Polyline
n 3000 1500 m 3000 1725 l gs col0 s gr 
% Polyline
n 2550 1500 m 3300 1500 l 3300 1725 l 2550 1725 l cp gs col0 s gr 
% Polyline
n 3000 1725 m 3000 1950 l gs col0 s gr 
% Polyline
n 2550 1725 m 3300 1725 l 3300 1950 l 2550 1950 l cp gs col0 s gr 
% Polyline
n 3000 1950 m 3000 2175 l gs col0 s gr 
% Polyline
n 2550 1950 m 3300 1950 l 3300 2175 l 2550 2175 l cp gs col0 s gr 
% Polyline
n 3000 2175 m 3000 2400 l gs col0 s gr 
% Polyline
n 2550 2175 m 3300 2175 l 3300 2400 l 2550 2400 l cp gs col0 s gr 
% Polyline
n 3000 2400 m 3000 2625 l gs col0 s gr 
% Polyline
n 2550 2400 m 3300 2400 l 3300 2625 l 2550 2625 l cp gs col0 s gr 
% Polyline
n 3000 2625 m 3000 2850 l gs col0 s gr 
% Polyline
n 2550 2625 m 3300 2625 l 3300 2850 l 2550 2850 l cp gs col0 s gr 
% Polyline
n 3000 2850 m 3000 3075 l gs col0 s gr 
% Polyline
n 2550 2850 m 3300 2850 l 3300 3075 l 2550 3075 l cp gs col0 s gr 
% Polyline
n 3000 3075 m 3000 3300 l gs col0 s gr 
% Polyline
n 2550 3075 m 3300 3075 l 3300 3300 l 2550 3300 l cp gs col0 s gr 
% Polyline
n 3000 3300 m 3000 3525 l gs col0 s gr 
% Polyline
n 2550 3300 m 3300 3300 l 3300 3525 l 2550 3525 l cp gs col0 s gr 
% Polyline
n 3000 3525 m 3000 3750 l gs col0 s gr 
% Polyline
n 2550 3525 m 3300 3525 l 3300 3750 l 2550 3750 l cp gs col0 s gr 
% Polyline
n 3000 3750 m 3000 3975 l gs col0 s gr 
% Polyline
n 2550 3750 m 3300 3750 l 3300 3975 l 2550 3975 l cp gs col0 s gr 
% Polyline
n 3000 3975 m 3000 4200 l gs col0 s gr 
% Polyline
n 2550 3975 m 3300 3975 l 3300 4200 l 2550 4200 l cp gs col0 s gr 
% Polyline
n 3000 600 m 3000 825 l gs col0 s gr 
% Polyline
n 2550 600 m 3300 600 l 3300 825 l 2550 825 l cp gs col0 s gr 
/Times-Roman ff 150.00 scf sf
2625 750 m
gs 1 -1 sc (1926) col0 sh gr
/Times-Roman ff 150.00 scf sf
2625 975 m
gs 1 -1 sc (1942) col0 sh gr
/Times-Roman ff 150.00 scf sf
2625 1200 m
gs 1 -1 sc (1958) col0 sh gr
/Times-Roman ff 150.00 scf sf
2625 1425 m
gs 1 -1 sc (1960) col0 sh gr
/Times-Roman ff 150.00 scf sf
2625 1650 m
gs 1 -1 sc (1969) col0 sh gr
/Times-Roman ff 150.00 scf sf
2625 1875 m
gs 1 -1 sc (1977) col0 sh gr
/Times-Roman ff 150.00 scf sf
2625 2100 m
gs 1 -1 sc (1979) col0 sh gr
/Times-Roman ff 150.00 scf sf
2625 2325 m
gs 1 -1 sc (1980) col0 sh gr
/Times-Roman ff 150.00 scf sf
2625 2550 m
gs 1 -1 sc (1984) col0 sh gr
/Times-Roman ff 150.00 scf sf
2625 2775 m
gs 1 -1 sc (1984) col0 sh gr
/Times-Roman ff 150.00 scf sf
2625 3000 m
gs 1 -1 sc (1990) col0 sh gr
/Times-Roman ff 150.00 scf sf
2625 3225 m
gs 1 -1 sc (1992) col0 sh gr
/Times-Roman ff 150.00 scf sf
2625 3450 m
gs 1 -1 sc (1992) col0 sh gr
/Times-Roman ff 150.00 scf sf
2625 3900 m
gs 1 -1 sc (1995) col0 sh gr
/Times-Roman ff 150.00 scf sf
2625 3675 m
gs 1 -1 sc (1992) col0 sh gr
/Times-Roman ff 150.00 scf sf
2625 4125 m
gs 1 -1 sc (1995) col0 sh gr
% Polyline
n 825 1875 m 1575 1875 l 1575 2100 l 825 2100 l cp gs col0 s gr 
% Polyline
n 1275 1875 m 1275 2100 l gs col0 s gr 
% Polyline
n 825 2100 m 1575 2100 l 1575 2325 l 825 2325 l cp gs col0 s gr 
% Polyline
n 1275 2100 m 1275 2325 l gs col0 s gr 
% Polyline
n 825 2325 m 1575 2325 l 1575 2550 l 825 2550 l cp gs col0 s gr 
% Polyline
n 1275 2325 m 1275 2550 l gs col0 s gr 
% Polyline
n 5325 3450 m 5325 3675 l gs col0 s gr 
% Polyline
n 5700 3450 m 5700 3675 l gs col0 s gr 
% Polyline
n 5325 1575 m 5325 1800 l gs col0 s gr 
% Polyline
n 5325 1350 m 5325 1575 l gs col0 s gr 
% Polyline
n 5700 1350 m 5700 1575 l gs col0 s gr 
% Polyline
n 5700 1575 m 5700 1800 l gs col0 s gr 
% Polyline
n 5325 1800 m 5325 2025 l gs col0 s gr 
% Polyline
n 5700 1800 m 5700 2025 l gs col0 s gr 
% Polyline
n 5325 975 m 5325 1200 l gs col0 s gr 
% Polyline
n 5700 975 m 5700 1200 l gs col0 s gr 
% Polyline
n 5325 750 m 5325 975 l gs col0 s gr 
% Polyline
n 5700 750 m 5700 975 l gs col0 s gr 
% Polyline
n 5325 525 m 5325 750 l gs col0 s gr 
% Polyline
n 5700 525 m 5700 750 l gs col0 s gr 
% Polyline
n 5325 300 m 5325 525 l gs col0 s gr 
% Polyline
n 5700 300 m 5700 525 l gs col0 s gr 
% Polyline
n 5325 2025 m 5325 2250 l gs col0 s gr 
% Polyline
n 5700 2025 m 5700 2250 l gs col0 s gr 
% Polyline
n 5325 2400 m 5325 2625 l gs col0 s gr 
% Polyline
n 5700 2400 m 5700 2625 l gs col0 s gr 
% Polyline
n 5325 2625 m 5325 2850 l gs col0 s gr 
% Polyline
n 5700 2625 m 5700 2850 l gs col0 s gr 
% Polyline
n 5325 2850 m 5325 3075 l gs col0 s gr 
% Polyline
n 5700 2850 m 5700 3075 l gs col0 s gr 
% Polyline
n 5325 3075 m 5325 3300 l gs col0 s gr 
% Polyline
n 5700 3075 m 5700 3300 l gs col0 s gr 
% Polyline
n 5325 3675 m 5325 3900 l gs col0 s gr 
% Polyline
n 5700 3675 m 5700 3900 l gs col0 s gr 
% Polyline
n 5325 3900 m 5325 4125 l gs col0 s gr 
% Polyline
n 5700 3900 m 5700 4125 l gs col0 s gr 
% Polyline
n 5325 4125 m 5325 4350 l gs col0 s gr 
% Polyline
n 5700 4125 m 5700 4350 l gs col0 s gr 
% Polyline
n 4350 975 m 6000 975 l 6000 1200 l 4350 1200 l cp gs col0 s gr 
% Polyline
n 4350 300 m 6000 300 l 6000 525 l 4350 525 l cp gs col0 s gr 
% Polyline
n 4350 525 m 6000 525 l 6000 750 l 4350 750 l cp gs col0 s gr 
% Polyline
n 4350 750 m 6000 750 l 6000 975 l 4350 975 l cp gs col0 s gr 
% Polyline
n 4350 1350 m 6000 1350 l 6000 1575 l 4350 1575 l cp gs col0 s gr 
% Polyline
n 4350 1575 m 6000 1575 l 6000 1800 l 4350 1800 l cp gs col0 s gr 
% Polyline
n 4350 1800 m 6000 1800 l 6000 2025 l 4350 2025 l cp gs col0 s gr 
% Polyline
n 4350 2025 m 6000 2025 l 6000 2250 l 4350 2250 l cp gs col0 s gr 
% Polyline
n 4350 2400 m 6000 2400 l 6000 2625 l 4350 2625 l cp gs col0 s gr 
% Polyline
n 4350 2625 m 6000 2625 l 6000 2850 l 4350 2850 l cp gs col0 s gr 
% Polyline
n 4350 2850 m 6000 2850 l 6000 3075 l 4350 3075 l cp gs col0 s gr 
% Polyline
n 4350 3075 m 6000 3075 l 6000 3300 l 4350 3300 l cp gs col0 s gr 
% Polyline
n 4350 3450 m 6000 3450 l 6000 3675 l 4350 3675 l cp gs col0 s gr 
% Polyline
n 4350 3675 m 6000 3675 l 6000 3900 l 4350 3900 l cp gs col0 s gr 
% Polyline
n 4350 3900 m 6000 3900 l 6000 4125 l 4350 4125 l cp gs col0 s gr 
% Polyline
n 4350 4125 m 6000 4125 l 6000 4350 l 4350 4350 l cp gs col0 s gr 
% Polyline
gs  clippath
4308 2434 m 4350 2550 l 4258 2467 l 4333 2579 l 4383 2546 l cp
clip
n 3150 750 m 4350 2550 l gs col0 s gr gr

% arrowhead
n 4308 2434 m 4350 2550 l 4258 2467 l 4283 2450 l 4308 2434 l  cp gs 0.00 setgray ef gr  col0 s
% Polyline
gs  clippath
4230 870 m 4350 900 l 4230 930 l 4365 930 l 4365 870 l cp
clip
n 3150 900 m 4350 900 l gs col0 s gr gr

% arrowhead
n 4230 870 m 4350 900 l 4230 930 l 4230 900 l 4230 870 l  cp gs 0.00 setgray ef gr  col0 s
% Polyline
gs  clippath
4335 4152 m 4350 4275 l 4279 4174 l 4327 4300 l 4383 4278 l cp
clip
n 3150 1125 m 4350 4275 l gs col0 s gr gr

% arrowhead
n 4335 4152 m 4350 4275 l 4279 4174 l 4307 4163 l 4335 4152 l  cp gs 0.00 setgray ef gr  col0 s
% Polyline
gs  clippath
4293 2665 m 4350 2775 l 4248 2705 l 4338 2806 l 4382 2766 l cp
clip
n 3150 1425 m 4350 2775 l gs col0 s gr gr

% arrowhead
n 4293 2665 m 4350 2775 l 4248 2705 l 4270 2685 l 4293 2665 l  cp gs 0.00 setgray ef gr  col0 s
% Polyline
gs  clippath
4228 1146 m 4350 1125 l 4252 1201 l 4376 1146 l 4352 1092 l cp
clip
n 3150 1650 m 4350 1125 l gs col0 s gr gr

% arrowhead
n 4228 1146 m 4350 1125 l 4252 1201 l 4240 1173 l 4228 1146 l  cp gs 0.00 setgray ef gr  col0 s
% Polyline
gs  clippath
4248 520 m 4350 450 l 4293 560 l 4382 459 l 4338 419 l cp
clip
n 3150 1800 m 4350 450 l gs col0 s gr gr

% arrowhead
n 4248 520 m 4350 450 l 4293 560 l 4270 540 l 4248 520 l  cp gs 0.00 setgray ef gr  col0 s
% Polyline
gs  clippath
4230 2070 m 4350 2100 l 4230 2130 l 4365 2130 l 4365 2070 l cp
clip
n 3150 2100 m 4350 2100 l gs col0 s gr gr

% arrowhead
n 4230 2070 m 4350 2100 l 4230 2130 l 4230 2100 l 4230 2070 l  cp gs 0.00 setgray ef gr  col0 s
% Polyline
gs  clippath
4276 3126 m 4350 3225 l 4238 3173 l 4343 3258 l 4381 3211 l cp
clip
n 3150 2250 m 4350 3225 l gs col0 s gr gr

% arrowhead
n 4276 3126 m 4350 3225 l 4238 3173 l 4257 3149 l 4276 3126 l  cp gs 0.00 setgray ef gr  col0 s
% Polyline
gs  clippath
4260 685 m 4350 600 l 4311 717 l 4383 604 l 4333 571 l cp
clip
n 3150 2475 m 4350 600 l gs col0 s gr gr

% arrowhead
n 4260 685 m 4350 600 l 4311 717 l 4285 701 l 4260 685 l  cp gs 0.00 setgray ef gr  col0 s
% Polyline
gs  clippath
4248 1495 m 4350 1425 l 4293 1535 l 4382 1434 l 4338 1394 l cp
clip
n 3150 2775 m 4350 1425 l gs col0 s gr gr

% arrowhead
n 4248 1495 m 4350 1425 l 4293 1535 l 4270 1515 l 4248 1495 l  cp gs 0.00 setgray ef gr  col0 s
% Polyline
gs  clippath
4268 3732 m 4350 3825 l 4234 3782 l 4345 3858 l 4379 3809 l cp
clip
n 3150 3000 m 4350 3825 l gs col0 s gr gr

% arrowhead
n 4268 3732 m 4350 3825 l 4234 3782 l 4251 3757 l 4268 3732 l  cp gs 0.00 setgray ef gr  col0 s
% Polyline
gs  clippath
4249 1722 m 4350 1650 l 4295 1761 l 4383 1658 l 4337 1619 l cp
clip
n 3075 3150 m 4350 1650 l gs col0 s gr gr

% arrowhead
n 4249 1722 m 4350 1650 l 4295 1761 l 4272 1741 l 4249 1722 l  cp gs 0.00 setgray ef gr  col0 s
% Polyline
gs  clippath
4252 1950 m 4350 1875 l 4298 1987 l 4383 1882 l 4336 1845 l cp
clip
n 3150 3375 m 4350 1875 l gs col0 s gr gr

% arrowhead
n 4252 1950 m 4350 1875 l 4298 1987 l 4275 1969 l 4252 1950 l  cp gs 0.00 setgray ef gr  col0 s
% Polyline
gs  clippath
4229 3027 m 4350 3000 l 4256 3080 l 4377 3020 l 4350 2966 l cp
clip
n 3150 3600 m 4350 3000 l gs col0 s gr gr

% arrowhead
n 4229 3027 m 4350 3000 l 4256 3080 l 4243 3054 l 4229 3027 l  cp gs 0.00 setgray ef gr  col0 s
% Polyline
gs  clippath
4226 3525 m 4350 3525 l 4241 3583 l 4372 3550 l 4357 3492 l cp
clip
n 3150 3825 m 4350 3525 l gs col0 s gr gr

% arrowhead
n 4226 3525 m 4350 3525 l 4241 3583 l 4234 3554 l 4226 3525 l  cp gs 0.00 setgray ef gr  col0 s
% Polyline
gs  clippath
4230 4020 m 4350 4050 l 4230 4080 l 4365 4080 l 4365 4020 l cp
clip
n 3150 4050 m 4350 4050 l gs col0 s gr gr

% arrowhead
n 4230 4020 m 4350 4050 l 4230 4080 l 4230 4050 l 4230 4020 l  cp gs 0.00 setgray ef gr  col0 s
% Polyline
gs  clippath
2444 739 m 2550 675 l 2486 781 l 2582 686 l 2539 643 l cp
clip
n 1425 1800 m 2550 675 l gs col0 s gr gr

% arrowhead
n 2444 739 m 2550 675 l 2486 781 l 2465 760 l 2444 739 l  cp gs 0.00 setgray ef gr  col0 s
% Polyline
gs  clippath
2427 1659 m 2550 1650 l 2446 1716 l 2574 1674 l 2555 1617 l cp
clip
n 1425 2025 m 2550 1650 l gs col0 s gr gr

% arrowhead
n 2427 1659 m 2550 1650 l 2446 1716 l 2436 1688 l 2427 1659 l  cp gs 0.00 setgray ef gr  col0 s
% Polyline
gs  clippath
2438 2422 m 2550 2475 l 2426 2481 l 2559 2507 l 2571 2449 l cp
clip
n 1425 2250 m 2550 2475 l gs col0 s gr gr

% arrowhead
n 2438 2422 m 2550 2475 l 2426 2481 l 2432 2451 l 2438 2422 l  cp gs 0.00 setgray ef gr  col0 s
% Polyline
gs  clippath
2475 3277 m 2550 3375 l 2438 3323 l 2543 3408 l 2580 3361 l cp
clip
n 1425 2475 m 2550 3375 l gs col0 s gr gr

% arrowhead
n 2475 3277 m 2550 3375 l 2438 3323 l 2456 3300 l 2475 3277 l  cp gs 0.00 setgray ef gr  col0 s
/Times-Roman ff 165.00 scf sf
5751 450 m
gs 1 -1 sc (...) col0 sh gr
/Times-Roman ff 150.00 scf sf
4500 3600 m
gs 1 -1 sc (Smoke             1995) col0 sh gr
/Times-Roman ff 150.00 scf sf
4500 3825 m
gs 1 -1 sc (Twin Peaks     1990) col0 sh gr
/Times-Roman ff 150.00 scf sf
4500 4050 m
gs 1 -1 sc (Underground   1995) col0 sh gr
/Times-Roman ff 150.00 scf sf
4500 675 m
gs 1 -1 sc (Brazil              1984) col0 sh gr
/Times-Roman ff 150.00 scf sf
4500 450 m
gs 1 -1 sc (Annie Hall      1977) col0 sh gr
/Times-Roman ff 150.00 scf sf
5850 3600 m
gs 1 -1 sc (...) col0 sh gr
/Times-Roman ff 150.00 scf sf
4500 900 m
gs 1 -1 sc (Casablanca      1942) col0 sh gr
/Times-Roman ff 150.00 scf sf
4500 1125 m
gs 1 -1 sc (Easy Rider       1969) col0 sh gr
/Times-Roman ff 150.00 scf sf
5250 1500 m
gs 1 -1 sc ( ) col0 sh gr
/Times-Roman ff 150.00 scf sf
5850 1500 m
gs 1 -1 sc (...) col0 sh gr
/Times-Roman ff 150.00 scf sf
5850 1725 m
gs 1 -1 sc (...) col0 sh gr
/Times-Roman ff 150.00 scf sf
5850 1950 m
gs 1 -1 sc (...) col0 sh gr
/Times-Roman ff 150.00 scf sf
5175 2250 m
gs 1 -1 sc ( ) col0 sh gr
/Times-Roman ff 150.00 scf sf
4500 1500 m
gs 1 -1 sc (Greystoke        1984) col0 sh gr
/Times-Roman ff 150.00 scf sf
4500 1725 m
gs 1 -1 sc (Jurassic Park   1992) col0 sh gr
/Times-Roman ff 150.00 scf sf
4500 1950 m
gs 1 -1 sc (Impitoyable     1992) col0 sh gr
/Times-Roman ff 150.00 scf sf
4500 2175 m
gs 1 -1 sc (Manhattan      1979) col0 sh gr
/Times-Roman ff 150.00 scf sf
4425 3000 m
gs 1 -1 sc (Reservoir Dogs  1992) col0 sh gr
/Times-Roman ff 150.00 scf sf
4500 4275 m
gs 1 -1 sc (Vertigo            1958) col0 sh gr
/Times-Roman ff 150.00 scf sf
5850 1125 m
gs 1 -1 sc (...) col0 sh gr
/Times-Roman ff 150.00 scf sf
5850 900 m
gs 1 -1 sc (...) col0 sh gr
/Times-Roman ff 150.00 scf sf
5850 675 m
gs 1 -1 sc (...) col0 sh gr
/Times-Roman ff 150.00 scf sf
5850 450 m
gs 1 -1 sc (...) col0 sh gr
/Times-Roman ff 150.00 scf sf
5850 2175 m
gs 1 -1 sc (...) col0 sh gr
/Times-Roman ff 150.00 scf sf
5850 2550 m
gs 1 -1 sc (...) col0 sh gr
/Times-Roman ff 150.00 scf sf
5850 2775 m
gs 1 -1 sc (...) col0 sh gr
/Times-Roman ff 150.00 scf sf
5850 3000 m
gs 1 -1 sc (...) col0 sh gr
/Times-Roman ff 150.00 scf sf
5850 3225 m
gs 1 -1 sc (...) col0 sh gr
/Times-Roman ff 150.00 scf sf
5850 3825 m
gs 1 -1 sc (...) col0 sh gr
/Times-Roman ff 150.00 scf sf
5850 4050 m
gs 1 -1 sc (...) col0 sh gr
/Times-Roman ff 150.00 scf sf
5850 4275 m
gs 1 -1 sc (...) col0 sh gr
/Times-Roman ff 150.00 scf sf
4425 2550 m
gs 1 -1 sc (Metropolis         1926) col0 sh gr
/Times-Roman ff 150.00 scf sf
4425 2775 m
gs 1 -1 sc (Psychose            1960) col0 sh gr
/Times-Roman ff 150.00 scf sf
4425 3225 m
gs 1 -1 sc (Shining             1980) col0 sh gr
/Times-Roman ff 150.00 scf sf
900 1800 m
gs 1 -1 sc (1926) col0 sh gr
/Times-Roman ff 150.00 scf sf
900 2025 m
gs 1 -1 sc (1969) col0 sh gr
/Times-Roman ff 150.00 scf sf
900 2250 m
gs 1 -1 sc (1984) col0 sh gr
/Times-Roman ff 150.00 scf sf
900 2475 m
gs 1 -1 sc (1992) col0 sh gr
$F2psEnd
rs
