%!PS-Adobe-2.0 EPSF-2.0
%%Title: interBtree.eps
%%Creator: fig2dev Version 3.2.3 Patchlevel 
%%CreationDate: Wed May  8 17:53:04 2002
%%For: rigaux@cartier (Philippe Rigaux)
%%BoundingBox: 0 0 322 121
%%Magnification: 1.0000
%%EndComments
/$F2psDict 200 dict def
$F2psDict begin
$F2psDict /mtrx matrix put
/col-1 {0 setgray} bind def
/col0 {0.000 0.000 0.000 srgb} bind def
/col1 {0.000 0.000 1.000 srgb} bind def
/col2 {0.000 1.000 0.000 srgb} bind def
/col3 {0.000 1.000 1.000 srgb} bind def
/col4 {1.000 0.000 0.000 srgb} bind def
/col5 {1.000 0.000 1.000 srgb} bind def
/col6 {1.000 1.000 0.000 srgb} bind def
/col7 {1.000 1.000 1.000 srgb} bind def
/col8 {0.000 0.000 0.560 srgb} bind def
/col9 {0.000 0.000 0.690 srgb} bind def
/col10 {0.000 0.000 0.820 srgb} bind def
/col11 {0.530 0.810 1.000 srgb} bind def
/col12 {0.000 0.560 0.000 srgb} bind def
/col13 {0.000 0.690 0.000 srgb} bind def
/col14 {0.000 0.820 0.000 srgb} bind def
/col15 {0.000 0.560 0.560 srgb} bind def
/col16 {0.000 0.690 0.690 srgb} bind def
/col17 {0.000 0.820 0.820 srgb} bind def
/col18 {0.560 0.000 0.000 srgb} bind def
/col19 {0.690 0.000 0.000 srgb} bind def
/col20 {0.820 0.000 0.000 srgb} bind def
/col21 {0.560 0.000 0.560 srgb} bind def
/col22 {0.690 0.000 0.690 srgb} bind def
/col23 {0.820 0.000 0.820 srgb} bind def
/col24 {0.500 0.190 0.000 srgb} bind def
/col25 {0.630 0.250 0.000 srgb} bind def
/col26 {0.750 0.380 0.000 srgb} bind def
/col27 {1.000 0.500 0.500 srgb} bind def
/col28 {1.000 0.630 0.630 srgb} bind def
/col29 {1.000 0.750 0.750 srgb} bind def
/col30 {1.000 0.880 0.880 srgb} bind def
/col31 {1.000 0.840 0.000 srgb} bind def

end
save
newpath 0 121 moveto 0 0 lineto 322 0 lineto 322 121 lineto closepath clip newpath
-30.0 156.0 translate
1 -1 scale

/cp {closepath} bind def
/ef {eofill} bind def
/gr {grestore} bind def
/gs {gsave} bind def
/sa {save} bind def
/rs {restore} bind def
/l {lineto} bind def
/m {moveto} bind def
/rm {rmoveto} bind def
/n {newpath} bind def
/s {stroke} bind def
/sh {show} bind def
/slc {setlinecap} bind def
/slj {setlinejoin} bind def
/slw {setlinewidth} bind def
/srgb {setrgbcolor} bind def
/rot {rotate} bind def
/sc {scale} bind def
/sd {setdash} bind def
/ff {findfont} bind def
/sf {setfont} bind def
/scf {scalefont} bind def
/sw {stringwidth} bind def
/tr {translate} bind def
/tnt {dup dup currentrgbcolor
  4 -2 roll dup 1 exch sub 3 -1 roll mul add
  4 -2 roll dup 1 exch sub 3 -1 roll mul add
  4 -2 roll dup 1 exch sub 3 -1 roll mul add srgb}
  bind def
/shd {dup dup currentrgbcolor 4 -2 roll mul 4 -2 roll mul
  4 -2 roll mul srgb} bind def
/$F2psBegin {$F2psDict begin /$F2psEnteredState save def} def
/$F2psEnd {$F2psEnteredState restore end} def

$F2psBegin
%%Page: 1 1
10 setmiterlimit
 0.06000 0.06000 sc
/Times-Roman ff 150.00 scf sf
825 2550 m
gs 1 -1 sc (Page 1) col0 sh gr
/Times-Roman ff 150.00 scf sf
2175 2550 m
gs 1 -1 sc (Page 2) col0 sh gr
/Times-Roman ff 150.00 scf sf
3600 2550 m
gs 1 -1 sc (Page 3) col0 sh gr
/Times-Roman ff 150.00 scf sf
5100 2550 m
gs 1 -1 sc (Page 4) col0 sh gr
/Times-Roman ff 150.00 scf sf
600 1800 m
gs 1 -1 sc (1) col0 sh gr
/Times-Roman ff 150.00 scf sf
900 1800 m
gs 1 -1 sc (5) col0 sh gr
/Times-Roman ff 150.00 scf sf
1200 1800 m
gs 1 -1 sc (9) col0 sh gr
/Times-Roman ff 150.00 scf sf
2025 1800 m
gs 1 -1 sc (2) col0 sh gr
/Times-Roman ff 150.00 scf sf
2325 1800 m
gs 1 -1 sc (6) col0 sh gr
/Times-Roman ff 150.00 scf sf
2625 1800 m
gs 1 -1 sc (10) col0 sh gr
/Times-Roman ff 150.00 scf sf
3525 1800 m
gs 1 -1 sc (3) col0 sh gr
/Times-Roman ff 150.00 scf sf
3825 1800 m
gs 1 -1 sc (7) col0 sh gr
/Times-Roman ff 150.00 scf sf
4125 1800 m
gs 1 -1 sc (11) col0 sh gr
/Times-Roman ff 150.00 scf sf
4950 1800 m
gs 1 -1 sc (4) col0 sh gr
/Times-Roman ff 150.00 scf sf
5250 1800 m
gs 1 -1 sc (8) col0 sh gr
/Times-Roman ff 150.00 scf sf
5550 1800 m
gs 1 -1 sc (12) col0 sh gr
% Polyline
7.500 slw
n 525 1125 m 3075 600 l 5850 1125 l
 cp gs col0 s gr 
% Polyline
gs  clippath
945 1590 m 1005 1590 l 1005 1439 l 975 1559 l 945 1439 l cp
eoclip
n 2400 1050 m 2400 1275 l 975 1275 l
 975 1575 l gs col0 s gr gr

% arrowhead
n 945 1439 m 975 1559 l 1005 1439 l 945 1439 l  cp gs 0.00 setgray ef gr  col0 s
% Polyline
gs  clippath
2670 1590 m 2730 1590 l 2730 1439 l 2700 1559 l 2670 1439 l cp
eoclip
n 2700 1050 m
 2700 1575 l gs col0 s gr gr

% arrowhead
n 2670 1439 m 2700 1559 l 2730 1439 l 2670 1439 l  cp gs 0.00 setgray ef gr  col0 s
% Polyline
gs  clippath
3870 1590 m 3930 1590 l 3930 1439 l 3900 1559 l 3870 1439 l cp
eoclip
n 2925 1050 m 2925 1275 l 3900 1275 l
 3900 1575 l gs col0 s gr gr

% arrowhead
n 3870 1439 m 3900 1559 l 3930 1439 l 3870 1439 l  cp gs 0.00 setgray ef gr  col0 s
% Polyline
gs  clippath
5220 1590 m 5280 1590 l 5280 1439 l 5250 1559 l 5220 1439 l cp
eoclip
n 3150 1050 m 3150 1200 l 5250 1200 l
 5250 1575 l gs col0 s gr gr

% arrowhead
n 5220 1439 m 5250 1559 l 5280 1439 l 5220 1439 l  cp gs 0.00 setgray ef gr  col0 s
% Polyline
gs  clippath
1320 1590 m 1380 1590 l 1380 1439 l 1350 1559 l 1320 1439 l cp
eoclip
n 3375 1050 m 3375 1350 l 1350 1350 l
 1350 1575 l gs col0 s gr gr

% arrowhead
n 1320 1439 m 1350 1559 l 1380 1439 l 1320 1439 l  cp gs 0.00 setgray ef gr  col0 s
/Times-Roman ff 150.00 scf sf
2925 825 m
gs 1 -1 sc (Index) col0 sh gr
/Times-Roman ff 150.00 scf sf
2400 1050 m
gs 1 -1 sc (9) col0 sh gr
/Times-Roman ff 150.00 scf sf
2625 1050 m
gs 1 -1 sc (10) col0 sh gr
/Times-Roman ff 150.00 scf sf
2850 1050 m
gs 1 -1 sc (11) col0 sh gr
/Times-Roman ff 150.00 scf sf
3075 1050 m
gs 1 -1 sc (12) col0 sh gr
/Times-Roman ff 150.00 scf sf
3300 1050 m
gs 1 -1 sc (13) col0 sh gr
% Polyline
n 525 1575 m 1500 1575 l 1500 2325 l 525 2325 l
 cp gs col-1 s gr 
% Polyline
n 1875 1575 m 2925 1575 l 2925 2325 l 1875 2325 l
 cp gs col-1 s gr 
% Polyline
n 3375 1575 m 4425 1575 l 4425 2325 l 3375 2325 l
 cp gs col-1 s gr 
% Polyline
n 4800 1575 m 5850 1575 l 5850 2325 l 4800 2325 l
 cp gs col-1 s gr 
/Times-Roman ff 150.00 scf sf
600 2100 m
gs 1 -1 sc (13) col-1 sh gr
/Times-Roman ff 150.00 scf sf
1950 2100 m
gs 1 -1 sc (14) col-1 sh gr
/Times-Roman ff 150.00 scf sf
3450 2025 m
gs 1 -1 sc (...) col-1 sh gr
/Times-Roman ff 150.00 scf sf
4875 2025 m
gs 1 -1 sc (...) col-1 sh gr
/Times-Roman ff 150.00 scf sf
900 2100 m
gs 1 -1 sc (...) col-1 sh gr
/Times-Roman ff 150.00 scf sf
2250 2100 m
gs 1 -1 sc (...) col-1 sh gr
$F2psEnd
rs
