#FIG 3.2
Portrait
Center
Inches
A4      
100.00
Single
-2
1200 2
6 3150 75 3975 1050
2 1 0 1 -1 7 0 0 -1 0.000 0 0 -1 0 0 2
	 3150 300 3975 300
2 4 0 1 -1 7 0 0 -1 0.000 0 0 7 0 0 5
	 3975 1050 3975 75 3150 75 3150 1050 3975 1050
4 0 -1 0 0 0 10 0.0000 4 135 420 3225 225 Disque\001
4 0 0 50 0 2 10 0.0000 4 120 300 3225 525 titre\001
4 0 -1 0 0 0 10 0.0000 4 150 330 3225 675 ann\351e\001
4 0 0 50 0 0 10 0.0000 4 135 675 3225 825 producteur\001
-6
6 450 1350 1200 2250
2 1 0 1 -1 7 0 0 -1 0.000 0 0 -1 0 0 2
	 450 1650 1200 1650
2 4 0 1 -1 7 0 0 -1 0.000 0 0 7 0 0 5
	 1200 2250 1200 1350 450 1350 450 2250 1200 2250
4 0 -1 0 0 0 10 0.0000 4 105 435 601 1576 Oeuvre\001
4 0 0 50 0 2 10 0.0000 4 120 135 600 1800 id\001
4 0 -1 0 0 0 10 0.0000 4 105 285 600 1950 titre\001
4 0 0 50 0 0 10 0.0000 4 150 330 600 2100 ann\351e\001
-6
2 4 0 1 -1 7 0 0 -1 0.000 0 0 7 0 0 5
	 3750 2325 3750 1350 3000 1350 3000 2325 3750 2325
2 1 0 1 -1 7 0 0 -1 0.000 0 0 -1 0 0 2
	 3000 1650 3750 1650
2 1 0 1 0 7 50 0 -1 0.000 0 0 -1 0 0 2
	 2925 600 2250 600
2 1 0 1 0 7 50 0 -1 0.000 0 0 -1 0 0 2
	 1500 300 2250 300
2 1 0 1 0 7 50 0 -1 0.000 0 0 -1 0 0 3
	 1800 900 1800 1725 3000 1725
2 1 0 1 0 7 50 0 -1 0.000 0 0 7 0 0 3
	 825 1350 825 525 1500 525
2 4 0 1 -1 7 0 0 -1 0.000 0 0 5 0 0 5
	 2250 900 2250 76 1500 76 1500 900 2250 900
2 2 0 1 0 7 50 0 -1 0.000 0 0 -1 0 0 5
	 2925 525 3150 525 3150 750 2925 750 2925 525
4 0 -1 0 0 0 10 0.0000 4 135 345 1650 225 Plage\001
4 0 -1 0 0 0 10 0.0000 4 150 570 3075 1575 Interpr\350te\001
4 0 -1 0 0 0 10 0.0000 4 75 270 3075 2025 nom\001
4 0 0 50 0 2 10 0.0000 4 120 135 3075 1875 id\001
4 0 0 50 0 0 10 0.0000 4 150 435 3075 2175 pr\351nom\001
4 0 0 50 0 0 10 0.0000 4 135 480 2325 1875 joue sur\001
4 0 0 50 0 2 10 0.0000 4 75 180 2962 675 no\001
4 0 -1 0 0 0 10 0.0000 4 150 315 1575 525 dur\351e\001
4 0 0 50 0 0 10 0.0000 4 135 615 1575 750 dateEnreg\001
