#FIG 3.2
Landscape
Center
Inches
A4      
100.00
Single
-2
1200 2
2 1 0 1 -1 7 0 0 -1 0.000 0 0 -1 0 0 2
	 1200 225 1200 525
2 1 0 1 -1 7 0 0 -1 0.000 0 0 -1 0 0 2
	 450 225 450 525
2 1 0 1 -1 7 0 0 -1 0.000 0 0 -1 0 0 2
	 750 225 750 525
2 1 0 1 -1 7 0 0 -1 0.000 0 0 -1 0 0 2
	 1350 225 1350 525
2 1 0 1 -1 7 0 0 -1 0.000 0 0 -1 0 0 2
	 1650 225 1650 525
2 1 0 1 -1 7 0 0 -1 0.000 0 0 -1 0 0 2
	 2100 225 2100 525
2 1 0 1 -1 7 0 0 -1 0.000 0 0 -1 1 0 2
	1 1 1.00 60.00 120.00
	 375 375 375 750
2 1 0 1 -1 7 0 0 -1 0.000 0 0 -1 1 0 2
	1 1 1.00 60.00 120.00
	 1275 375 1275 750
2 1 0 1 -1 7 0 0 -1 0.000 0 0 -1 0 0 2
	 4050 225 4050 525
2 1 0 1 -1 7 0 0 -1 0.000 0 0 -1 0 0 2
	 3600 225 3600 525
2 1 0 1 -1 7 0 0 -1 0.000 0 0 -1 0 0 2
	 3300 225 3300 525
2 1 0 1 -1 7 0 0 -1 0.000 0 0 -1 0 0 2
	 3150 225 3150 525
2 1 0 1 -1 7 0 0 -1 0.000 0 0 -1 1 0 2
	1 1 1.00 60.00 120.00
	 3225 375 3225 750
2 1 0 1 -1 7 0 0 -1 0.000 0 0 -1 1 0 2
	1 1 1.00 60.00 120.00
	 4125 375 4125 750
2 2 0 1 -1 7 0 0 -1 0.000 0 0 0 0 0 5
	 300 225 4200 225 4200 525 300 525 300 225
4 0 -1 0 0 0 10 0.0000 4 105 180 525 450 C1\001
4 0 -1 0 0 0 10 0.0000 4 105 180 900 450 R1\001
4 0 -1 0 0 0 10 0.0000 4 15 135 2250 450 ...\001
4 0 -1 0 0 0 10 0.0000 4 105 180 1425 450 C2\001
4 0 -1 0 0 0 10 0.0000 4 105 180 1800 450 R2\001
4 0 -1 0 0 0 10 0.0000 4 105 165 300 975 P1\001
4 0 -1 0 0 0 10 0.0000 4 105 165 1200 975 P2\001
4 0 -1 0 0 0 10 0.0000 4 105 180 3375 450 Cn\001
4 0 -1 0 0 0 10 0.0000 4 105 180 3750 450 Rn\001
4 0 -1 0 0 0 10 0.0000 4 105 165 3150 975 Pn\001
4 0 -1 0 0 0 10 0.0000 4 105 330 3900 975 Pn+1\001
