%!PS-Adobe-2.0 EPSF-2.0
%%Title: PE4.eps
%%Creator: fig2dev Version 3.2.3 Patchlevel 
%%CreationDate: Mon May 13 22:16:12 2002
%%For: rigaux@cartier (Philippe Rigaux)
%%BoundingBox: 0 0 347 243
%%Magnification: 1.0000
%%EndComments
/$F2psDict 200 dict def
$F2psDict begin
$F2psDict /mtrx matrix put
/col-1 {0 setgray} bind def
/col0 {0.000 0.000 0.000 srgb} bind def
/col1 {0.000 0.000 1.000 srgb} bind def
/col2 {0.000 1.000 0.000 srgb} bind def
/col3 {0.000 1.000 1.000 srgb} bind def
/col4 {1.000 0.000 0.000 srgb} bind def
/col5 {1.000 0.000 1.000 srgb} bind def
/col6 {1.000 1.000 0.000 srgb} bind def
/col7 {1.000 1.000 1.000 srgb} bind def
/col8 {0.000 0.000 0.560 srgb} bind def
/col9 {0.000 0.000 0.690 srgb} bind def
/col10 {0.000 0.000 0.820 srgb} bind def
/col11 {0.530 0.810 1.000 srgb} bind def
/col12 {0.000 0.560 0.000 srgb} bind def
/col13 {0.000 0.690 0.000 srgb} bind def
/col14 {0.000 0.820 0.000 srgb} bind def
/col15 {0.000 0.560 0.560 srgb} bind def
/col16 {0.000 0.690 0.690 srgb} bind def
/col17 {0.000 0.820 0.820 srgb} bind def
/col18 {0.560 0.000 0.000 srgb} bind def
/col19 {0.690 0.000 0.000 srgb} bind def
/col20 {0.820 0.000 0.000 srgb} bind def
/col21 {0.560 0.000 0.560 srgb} bind def
/col22 {0.690 0.000 0.690 srgb} bind def
/col23 {0.820 0.000 0.820 srgb} bind def
/col24 {0.500 0.190 0.000 srgb} bind def
/col25 {0.630 0.250 0.000 srgb} bind def
/col26 {0.750 0.380 0.000 srgb} bind def
/col27 {1.000 0.500 0.500 srgb} bind def
/col28 {1.000 0.630 0.630 srgb} bind def
/col29 {1.000 0.750 0.750 srgb} bind def
/col30 {1.000 0.880 0.880 srgb} bind def
/col31 {1.000 0.840 0.000 srgb} bind def

end
save
newpath 0 243 moveto 0 0 lineto 347 0 lineto 347 243 lineto closepath clip newpath
-9.0 261.0 translate
1 -1 scale

/cp {closepath} bind def
/ef {eofill} bind def
/gr {grestore} bind def
/gs {gsave} bind def
/sa {save} bind def
/rs {restore} bind def
/l {lineto} bind def
/m {moveto} bind def
/rm {rmoveto} bind def
/n {newpath} bind def
/s {stroke} bind def
/sh {show} bind def
/slc {setlinecap} bind def
/slj {setlinejoin} bind def
/slw {setlinewidth} bind def
/srgb {setrgbcolor} bind def
/rot {rotate} bind def
/sc {scale} bind def
/sd {setdash} bind def
/ff {findfont} bind def
/sf {setfont} bind def
/scf {scalefont} bind def
/sw {stringwidth} bind def
/tr {translate} bind def
/tnt {dup dup currentrgbcolor
  4 -2 roll dup 1 exch sub 3 -1 roll mul add
  4 -2 roll dup 1 exch sub 3 -1 roll mul add
  4 -2 roll dup 1 exch sub 3 -1 roll mul add srgb}
  bind def
/shd {dup dup currentrgbcolor 4 -2 roll mul 4 -2 roll mul
  4 -2 roll mul srgb} bind def
/reencdict 12 dict def /ReEncode { reencdict begin
/newcodesandnames exch def /newfontname exch def /basefontname exch def
/basefontdict basefontname findfont def /newfont basefontdict maxlength dict def
basefontdict { exch dup /FID ne { dup /Encoding eq
{ exch dup length array copy newfont 3 1 roll put }
{ exch newfont 3 1 roll put } ifelse } { pop pop } ifelse } forall
newfont /FontName newfontname put newcodesandnames aload pop
128 1 255 { newfont /Encoding get exch /.notdef put } for
newcodesandnames length 2 idiv { newfont /Encoding get 3 1 roll put } repeat
newfontname newfont definefont pop end } def
/isovec [
8#055 /minus 8#200 /grave 8#201 /acute 8#202 /circumflex 8#203 /tilde
8#204 /macron 8#205 /breve 8#206 /dotaccent 8#207 /dieresis
8#210 /ring 8#211 /cedilla 8#212 /hungarumlaut 8#213 /ogonek 8#214 /caron
8#220 /dotlessi 8#230 /oe 8#231 /OE
8#240 /space 8#241 /exclamdown 8#242 /cent 8#243 /sterling
8#244 /currency 8#245 /yen 8#246 /brokenbar 8#247 /section 8#250 /dieresis
8#251 /copyright 8#252 /ordfeminine 8#253 /guillemotleft 8#254 /logicalnot
8#255 /hypen 8#256 /registered 8#257 /macron 8#260 /degree 8#261 /plusminus
8#262 /twosuperior 8#263 /threesuperior 8#264 /acute 8#265 /mu 8#266 /paragraph
8#267 /periodcentered 8#270 /cedilla 8#271 /onesuperior 8#272 /ordmasculine
8#273 /guillemotright 8#274 /onequarter 8#275 /onehalf
8#276 /threequarters 8#277 /questiondown 8#300 /Agrave 8#301 /Aacute
8#302 /Acircumflex 8#303 /Atilde 8#304 /Adieresis 8#305 /Aring
8#306 /AE 8#307 /Ccedilla 8#310 /Egrave 8#311 /Eacute
8#312 /Ecircumflex 8#313 /Edieresis 8#314 /Igrave 8#315 /Iacute
8#316 /Icircumflex 8#317 /Idieresis 8#320 /Eth 8#321 /Ntilde 8#322 /Ograve
8#323 /Oacute 8#324 /Ocircumflex 8#325 /Otilde 8#326 /Odieresis 8#327 /multiply
8#330 /Oslash 8#331 /Ugrave 8#332 /Uacute 8#333 /Ucircumflex
8#334 /Udieresis 8#335 /Yacute 8#336 /Thorn 8#337 /germandbls 8#340 /agrave
8#341 /aacute 8#342 /acircumflex 8#343 /atilde 8#344 /adieresis 8#345 /aring
8#346 /ae 8#347 /ccedilla 8#350 /egrave 8#351 /eacute
8#352 /ecircumflex 8#353 /edieresis 8#354 /igrave 8#355 /iacute
8#356 /icircumflex 8#357 /idieresis 8#360 /eth 8#361 /ntilde 8#362 /ograve
8#363 /oacute 8#364 /ocircumflex 8#365 /otilde 8#366 /odieresis 8#367 /divide
8#370 /oslash 8#371 /ugrave 8#372 /uacute 8#373 /ucircumflex
8#374 /udieresis 8#375 /yacute 8#376 /thorn 8#377 /ydieresis] def
/Times-Roman /Times-Roman-iso isovec ReEncode
/Times-Bold /Times-Bold-iso isovec ReEncode
 /DrawEllipse {
	/endangle exch def
	/startangle exch def
	/yrad exch def
	/xrad exch def
	/y exch def
	/x exch def
	/savematrix mtrx currentmatrix def
	x y tr xrad yrad sc 0 0 1 startangle endangle arc
	closepath
	savematrix setmatrix
	} def

/$F2psBegin {$F2psDict begin /$F2psEnteredState save def} def
/$F2psEnd {$F2psEnteredState restore end} def

$F2psBegin
%%Page: 1 1
10 setmiterlimit
 0.06299 0.06299 sc
/Times-Roman-iso ff 150.00 scf sf
1035 2340 m
gs 1 -1 sc ([film]) col0 sh gr
/Times-Roman-iso ff 150.00 scf sf
2430 2340 m
gs 1 -1 sc ([r\364le]) col0 sh gr
/Times-Roman-iso ff 150.00 scf sf
1890 1935 m
gs 1 -1 sc ([film,r\364le]) col0 sh gr
7.500 slw
% Ellipse
n 4050 450 375 150 0 360 DrawEllipse gs col-1 s gr

/Times-Roman-iso ff 150.00 scf sf
3750 525 m
gs 1 -1 sc (Projection) col-1 sh gr
% Ellipse
n 5025 3375 375 150 0 360 DrawEllipse gs col-1 s gr

% Ellipse
n 900 3450 375 150 0 360 DrawEllipse gs col-1 s gr

% Ellipse
n 900 2775 375 150 0 360 DrawEllipse gs col-1 s gr

% Ellipse
n 3000 2775 375 150 0 360 DrawEllipse gs col-1 s gr

% Ellipse
n 4950 2775 375 150 0 360 DrawEllipse gs col-1 s gr

% Ellipse
n 3975 1125 375 150 0 360 DrawEllipse gs col-1 s gr

% Ellipse
n 1875 2175 375 150 0 360 DrawEllipse gs col-1 s gr

% Ellipse
n 1875 1575 375 150 0 360 DrawEllipse gs col-1 s gr

% Polyline
n 4050 600 m
 4050 975 l gs col-1 s gr 
% Polyline
n 900 3900 m
 900 3600 l gs col-1 s gr 
% Polyline
n 900 3300 m
 900 2925 l gs col-1 s gr 
% Polyline
n 1125 2700 m
 1500 2250 l gs col-1 s gr 
% Polyline
n 2175 2250 m
 2700 2700 l gs col-1 s gr 
% Polyline
n 1875 2025 m
 1875 1725 l gs col-1 s gr 
% Polyline
n 2250 1500 m
 3600 1125 l gs col-1 s gr 
% Polyline
n 4275 1200 m
 4950 2625 l gs col-1 s gr 
% Polyline
n 2925 2925 m
 2925 3900 l gs col-1 s gr 
% Polyline
n 4950 2925 m
 4950 3225 l gs col-1 s gr 
% Polyline
n 5025 3525 m
 5025 3900 l gs col-1 s gr 
% Polyline
n 1350 4125 m 1350 3900 l 525 3900 l 525 4125 l
 cp gs col-1 s gr 
% Polyline
n 3375 4125 m 3375 3900 l 2550 3900 l 2550 4125 l
 cp gs col-1 s gr 
% Polyline
n 5475 4125 m 5475 3900 l 4650 3900 l 4650 4125 l
 cp gs col-1 s gr 
/Times-Roman-iso ff 150.00 scf sf
825 2850 m
gs 1 -1 sc (Tri) col-1 sh gr
/Times-Roman-iso ff 150.00 scf sf
2925 2850 m
gs 1 -1 sc (Tri) col-1 sh gr
/Times-Roman-iso ff 150.00 scf sf
4875 2850 m
gs 1 -1 sc (Tri) col-1 sh gr
/Times-Roman-iso ff 150.00 scf sf
3750 1200 m
gs 1 -1 sc (Fusion) col-1 sh gr
/Times-Roman-iso ff 150.00 scf sf
1650 2250 m
gs 1 -1 sc (Fusion) col-1 sh gr
/Times-Roman-iso ff 150.00 scf sf
1800 1650 m
gs 1 -1 sc (Tri) col-1 sh gr
/Times-Roman-iso ff 150.00 scf sf
600 3525 m
gs 1 -1 sc (S\351lection) col-1 sh gr
/Times-Roman-iso ff 150.00 scf sf
4725 3450 m
gs 1 -1 sc (S\351lection) col-1 sh gr
/Times-Roman-iso ff 150.00 scf sf
150 3825 m
gs 1 -1 sc (S\351quentiel) col-1 sh gr
/Times-Roman-iso ff 150.00 scf sf
2175 3825 m
gs 1 -1 sc (S\351quentiel) col-1 sh gr
/Times-Roman-iso ff 150.00 scf sf
4275 3825 m
gs 1 -1 sc (S\351quentiel) col-1 sh gr
/Times-Bold-iso ff 150.00 scf sf
675 4050 m
gs 1 -1 sc (Film) col-1 sh gr
/Times-Roman-iso ff 150.00 scf sf
360 3330 m
gs 1 -1 sc (1958) col-1 sh gr
/Times-Roman-iso ff 150.00 scf sf
405 2565 m
gs 1 -1 sc (idFilm) col-1 sh gr
/Times-Roman-iso ff 150.00 scf sf
3150 2625 m
gs 1 -1 sc (idFilm) col-1 sh gr
/Times-Bold-iso ff 150.00 scf sf
2850 4050 m
gs 1 -1 sc (R\364le) col-1 sh gr
/Times-Roman-iso ff 150.00 scf sf
1305 1395 m
gs 1 -1 sc (idActeur) col-1 sh gr
/Times-Bold-iso ff 150.00 scf sf
4800 4050 m
gs 1 -1 sc (Artiste) col-1 sh gr
/Times-Roman-iso ff 150.00 scf sf
4050 3195 m
gs 1 -1 sc (James Stewart) col-1 sh gr
/Times-Roman-iso ff 150.00 scf sf
5040 2565 m
gs 1 -1 sc (idArtiste) col-1 sh gr
$F2psEnd
rs
