%!PS-Adobe-2.0 EPSF-2.0
%%Title: planex1.eps
%%Creator: fig2dev Version 3.2 Patchlevel 1
%%CreationDate: Tue Sep 12 16:35:11 2000
%%For: rigaux@cartier ()
%%Orientation: Portrait
%%BoundingBox: 0 0 181 105
%%Pages: 0
%%BeginSetup
%%EndSetup
%%Magnification: 1.0000
%%EndComments
/$F2psDict 200 dict def
$F2psDict begin
$F2psDict /mtrx matrix put
/col-1 {0 setgray} bind def
/col0 {0.000 0.000 0.000 srgb} bind def
/col1 {0.000 0.000 1.000 srgb} bind def
/col2 {0.000 1.000 0.000 srgb} bind def
/col3 {0.000 1.000 1.000 srgb} bind def
/col4 {1.000 0.000 0.000 srgb} bind def
/col5 {1.000 0.000 1.000 srgb} bind def
/col6 {1.000 1.000 0.000 srgb} bind def
/col7 {1.000 1.000 1.000 srgb} bind def
/col8 {0.000 0.000 0.560 srgb} bind def
/col9 {0.000 0.000 0.690 srgb} bind def
/col10 {0.000 0.000 0.820 srgb} bind def
/col11 {0.530 0.810 1.000 srgb} bind def
/col12 {0.000 0.560 0.000 srgb} bind def
/col13 {0.000 0.690 0.000 srgb} bind def
/col14 {0.000 0.820 0.000 srgb} bind def
/col15 {0.000 0.560 0.560 srgb} bind def
/col16 {0.000 0.690 0.690 srgb} bind def
/col17 {0.000 0.820 0.820 srgb} bind def
/col18 {0.560 0.000 0.000 srgb} bind def
/col19 {0.690 0.000 0.000 srgb} bind def
/col20 {0.820 0.000 0.000 srgb} bind def
/col21 {0.560 0.000 0.560 srgb} bind def
/col22 {0.690 0.000 0.690 srgb} bind def
/col23 {0.820 0.000 0.820 srgb} bind def
/col24 {0.500 0.190 0.000 srgb} bind def
/col25 {0.630 0.250 0.000 srgb} bind def
/col26 {0.750 0.380 0.000 srgb} bind def
/col27 {1.000 0.500 0.500 srgb} bind def
/col28 {1.000 0.630 0.630 srgb} bind def
/col29 {1.000 0.750 0.750 srgb} bind def
/col30 {1.000 0.880 0.880 srgb} bind def
/col31 {1.000 0.840 0.000 srgb} bind def

end
save
-41.0 132.0 translate
1 -1 scale

/cp {closepath} bind def
/ef {eofill} bind def
/gr {grestore} bind def
/gs {gsave} bind def
/sa {save} bind def
/rs {restore} bind def
/l {lineto} bind def
/m {moveto} bind def
/rm {rmoveto} bind def
/n {newpath} bind def
/s {stroke} bind def
/sh {show} bind def
/slc {setlinecap} bind def
/slj {setlinejoin} bind def
/slw {setlinewidth} bind def
/srgb {setrgbcolor} bind def
/rot {rotate} bind def
/sc {scale} bind def
/sd {setdash} bind def
/ff {findfont} bind def
/sf {setfont} bind def
/scf {scalefont} bind def
/sw {stringwidth} bind def
/tr {translate} bind def
/tnt {dup dup currentrgbcolor
  4 -2 roll dup 1 exch sub 3 -1 roll mul add
  4 -2 roll dup 1 exch sub 3 -1 roll mul add
  4 -2 roll dup 1 exch sub 3 -1 roll mul add srgb}
  bind def
/shd {dup dup currentrgbcolor 4 -2 roll mul 4 -2 roll mul
  4 -2 roll mul srgb} bind def
/reencdict 12 dict def /ReEncode { reencdict begin
/newcodesandnames exch def /newfontname exch def /basefontname exch def
/basefontdict basefontname findfont def /newfont basefontdict maxlength dict def
basefontdict { exch dup /FID ne { dup /Encoding eq
{ exch dup length array copy newfont 3 1 roll put }
{ exch newfont 3 1 roll put } ifelse } { pop pop } ifelse } forall
newfont /FontName newfontname put newcodesandnames aload pop
128 1 255 { newfont /Encoding get exch /.notdef put } for
newcodesandnames length 2 idiv { newfont /Encoding get 3 1 roll put } repeat
newfontname newfont definefont pop end } def
/isovec [
8#200 /grave 8#201 /acute 8#202 /circumflex 8#203 /tilde
8#204 /macron 8#205 /breve 8#206 /dotaccent 8#207 /dieresis
8#210 /ring 8#211 /cedilla 8#212 /hungarumlaut 8#213 /ogonek 8#214 /caron
8#220 /dotlessi 8#230 /oe 8#231 /OE
8#240 /space 8#241 /exclamdown 8#242 /cent 8#243 /sterling
8#244 /currency 8#245 /yen 8#246 /brokenbar 8#247 /section 8#250 /dieresis
8#251 /copyright 8#252 /ordfeminine 8#253 /guillemotleft 8#254 /logicalnot
8#255 /endash 8#256 /registered 8#257 /macron 8#260 /degree 8#261 /plusminus
8#262 /twosuperior 8#263 /threesuperior 8#264 /acute 8#265 /mu 8#266 /paragraph
8#267 /periodcentered 8#270 /cedilla 8#271 /onesuperior 8#272 /ordmasculine
8#273 /guillemotright 8#274 /onequarter 8#275 /onehalf
8#276 /threequarters 8#277 /questiondown 8#300 /Agrave 8#301 /Aacute
8#302 /Acircumflex 8#303 /Atilde 8#304 /Adieresis 8#305 /Aring
8#306 /AE 8#307 /Ccedilla 8#310 /Egrave 8#311 /Eacute
8#312 /Ecircumflex 8#313 /Edieresis 8#314 /Igrave 8#315 /Iacute
8#316 /Icircumflex 8#317 /Idieresis 8#320 /Eth 8#321 /Ntilde 8#322 /Ograve
8#323 /Oacute 8#324 /Ocircumflex 8#325 /Otilde 8#326 /Odieresis 8#327 /multiply
8#330 /Oslash 8#331 /Ugrave 8#332 /Uacute 8#333 /Ucircumflex
8#334 /Udieresis 8#335 /Yacute 8#336 /Thorn 8#337 /germandbls 8#340 /agrave
8#341 /aacute 8#342 /acircumflex 8#343 /atilde 8#344 /adieresis 8#345 /aring
8#346 /ae 8#347 /ccedilla 8#350 /egrave 8#351 /eacute
8#352 /ecircumflex 8#353 /edieresis 8#354 /igrave 8#355 /iacute
8#356 /icircumflex 8#357 /idieresis 8#360 /eth 8#361 /ntilde 8#362 /ograve
8#363 /oacute 8#364 /ocircumflex 8#365 /otilde 8#366 /odieresis 8#367 /divide
8#370 /oslash 8#371 /ugrave 8#372 /uacute 8#373 /ucircumflex
8#374 /udieresis 8#375 /yacute 8#376 /thorn 8#377 /ydieresis] def
/Times-Italic /Times-Italic-iso isovec ReEncode
/Times-Roman /Times-Roman-iso isovec ReEncode
/$F2psBegin {$F2psDict begin /$F2psEnteredState save def} def
/$F2psEnd {$F2psEnteredState restore end} def
%%EndProlog

$F2psBegin
10 setmiterlimit
n -1000 3082 m -1000 -1000 l 4522 -1000 l 4522 3082 l cp clip
 0.06299 0.06299 sc
/Times-Italic-iso ff 150.00 scf sf
765 1755 m
gs 1 -1 sc (Parcours) col0 sh gr
/Times-Italic-iso ff 150.00 scf sf
765 1950 m
gs 1 -1 sc (s\351quentiel) col0 sh gr
/Times-Italic-iso ff 150.00 scf sf
2880 1755 m
gs 1 -1 sc (Acc\350s ) col0 sh gr
/Times-Italic-iso ff 150.00 scf sf
2880 1950 m
gs 1 -1 sc (par index) col0 sh gr
% Polyline
7.500 slw
n 1950 720 m 1845 720 1845 885 105 arcto 4 {pop} repeat
  1845 990 2460 990 105 arcto 4 {pop} repeat
  2565 990 2565 825 105 arcto 4 {pop} repeat
  2565 720 1950 720 105 arcto 4 {pop} repeat
 cp gs col0 s gr 
% Polyline
gs  clippath
1732 995 m 1845 945 l 1769 1042 l 1875 959 l 1838 912 l cp
clip
n 1035 1575 m 1845 945 l gs col0 s gr gr

% arrowhead
n 1732 995 m 1845 945 l 1769 1042 l 1750 1019 l 1732 995 l  cp gs 0.00 setgray ef gr  col0 s
% Polyline
gs  clippath
2605 1062 m 2565 945 l 2655 1030 l 2582 916 l 2532 949 l cp
clip
n 2970 1575 m 2565 945 l gs col0 s gr gr

% arrowhead
n 2605 1062 m 2565 945 l 2655 1030 l 2630 1046 l 2605 1062 l  cp gs 0.00 setgray ef gr  col0 s
% Polyline
gs  clippath
2175 570 m 2205 450 l 2235 570 l 2235 435 l 2175 435 l cp
clip
n 2205 720 m 2205 450 l gs col0 s gr gr

% arrowhead
n 2175 570 m 2205 450 l 2235 570 l 2205 570 l 2175 570 l  cp gs 0.00 setgray ef gr  col0 s
% Polyline
n 780 1575 m 675 1575 675 1965 105 arcto 4 {pop} repeat
  675 2070 1290 2070 105 arcto 4 {pop} repeat
  1395 2070 1395 1680 105 arcto 4 {pop} repeat
  1395 1575 780 1575 105 arcto 4 {pop} repeat
 cp gs col0 s gr 
% Polyline
n 2895 1575 m 2790 1575 2790 1920 105 arcto 4 {pop} repeat
  2790 2025 3405 2025 105 arcto 4 {pop} repeat
  3510 2025 3510 1680 105 arcto 4 {pop} repeat
  3510 1575 2895 1575 105 arcto 4 {pop} repeat
 cp gs col0 s gr 
/Times-Italic-iso ff 150.00 scf sf
2025 900 m
gs 1 -1 sc (Jointure) col0 sh gr
/Times-Roman-iso ff 150.00 scf sf
900 1395 m
gs 1 -1 sc (Film) col0 sh gr
/Times-Roman-iso ff 150.00 scf sf
2925 1395 m
gs 1 -1 sc (Notation) col0 sh gr
$F2psEnd
rs
