%!PS-Adobe-2.0 EPSF-2.0
%%Title: planlogique2.fig
%%Creator: fig2dev Version 3.2.3 Patchlevel 
%%CreationDate: Tue Apr 16 09:58:34 2002
%%For: rigaux@cartier (Philippe Rigaux)
%%BoundingBox: 0 0 237 298
%%Magnification: 1.0000
%%EndComments
/$F2psDict 200 dict def
$F2psDict begin
$F2psDict /mtrx matrix put
/col-1 {0 setgray} bind def
/col0 {0.000 0.000 0.000 srgb} bind def
/col1 {0.000 0.000 1.000 srgb} bind def
/col2 {0.000 1.000 0.000 srgb} bind def
/col3 {0.000 1.000 1.000 srgb} bind def
/col4 {1.000 0.000 0.000 srgb} bind def
/col5 {1.000 0.000 1.000 srgb} bind def
/col6 {1.000 1.000 0.000 srgb} bind def
/col7 {1.000 1.000 1.000 srgb} bind def
/col8 {0.000 0.000 0.560 srgb} bind def
/col9 {0.000 0.000 0.690 srgb} bind def
/col10 {0.000 0.000 0.820 srgb} bind def
/col11 {0.530 0.810 1.000 srgb} bind def
/col12 {0.000 0.560 0.000 srgb} bind def
/col13 {0.000 0.690 0.000 srgb} bind def
/col14 {0.000 0.820 0.000 srgb} bind def
/col15 {0.000 0.560 0.560 srgb} bind def
/col16 {0.000 0.690 0.690 srgb} bind def
/col17 {0.000 0.820 0.820 srgb} bind def
/col18 {0.560 0.000 0.000 srgb} bind def
/col19 {0.690 0.000 0.000 srgb} bind def
/col20 {0.820 0.000 0.000 srgb} bind def
/col21 {0.560 0.000 0.560 srgb} bind def
/col22 {0.690 0.000 0.690 srgb} bind def
/col23 {0.820 0.000 0.820 srgb} bind def
/col24 {0.500 0.190 0.000 srgb} bind def
/col25 {0.630 0.250 0.000 srgb} bind def
/col26 {0.750 0.380 0.000 srgb} bind def
/col27 {1.000 0.500 0.500 srgb} bind def
/col28 {1.000 0.630 0.630 srgb} bind def
/col29 {1.000 0.750 0.750 srgb} bind def
/col30 {1.000 0.880 0.880 srgb} bind def
/col31 {1.000 0.840 0.000 srgb} bind def

end
save
newpath 0 298 moveto 0 0 lineto 237 0 lineto 237 298 lineto closepath clip newpath
-44.0 328.0 translate
1 -1 scale

/cp {closepath} bind def
/ef {eofill} bind def
/gr {grestore} bind def
/gs {gsave} bind def
/sa {save} bind def
/rs {restore} bind def
/l {lineto} bind def
/m {moveto} bind def
/rm {rmoveto} bind def
/n {newpath} bind def
/s {stroke} bind def
/sh {show} bind def
/slc {setlinecap} bind def
/slj {setlinejoin} bind def
/slw {setlinewidth} bind def
/srgb {setrgbcolor} bind def
/rot {rotate} bind def
/sc {scale} bind def
/sd {setdash} bind def
/ff {findfont} bind def
/sf {setfont} bind def
/scf {scalefont} bind def
/sw {stringwidth} bind def
/tr {translate} bind def
/tnt {dup dup currentrgbcolor
  4 -2 roll dup 1 exch sub 3 -1 roll mul add
  4 -2 roll dup 1 exch sub 3 -1 roll mul add
  4 -2 roll dup 1 exch sub 3 -1 roll mul add srgb}
  bind def
/shd {dup dup currentrgbcolor 4 -2 roll mul 4 -2 roll mul
  4 -2 roll mul srgb} bind def
/$F2psBegin {$F2psDict begin /$F2psEnteredState save def} def
/$F2psEnd {$F2psEnteredState restore end} def

$F2psBegin
%%Page: 1 1
10 setmiterlimit
 0.06000 0.06000 sc
% Polyline
7.500 slw
n 1350 1275 m
 1350 2100 l gs col0 s gr 
% Polyline
n 1350 2100 m
 3150 1275 l gs col0 s gr 
% Polyline
n 3150 1275 m
 3150 2100 l gs col0 s gr 
% Polyline
n 3150 2100 m
 1350 1275 l gs col0 s gr 
% Polyline
n 1350 2250 m 1200 3225 l
 cp gs col0 s gr 
% Polyline
n 1200 3825 m
 1050 4950 l gs col0 s gr 
% Polyline
n 3150 2175 m
 3975 4950 l gs col0 s gr 
% Polyline
n 2025 750 m 2025 525 l 2550 525 l
 2550 750 l gs col0 s gr 
% Polyline
n 2025 525 m 1950 525 l
 2025 525 l  cp gs col0 s gr 
% Polyline
n 2550 525 m 2775 525 l
 2700 525 l gs col0 s gr 
% Polyline
n 2250 900 m
 2250 1575 l gs col0 s gr 
% Polyline
n 1500 3300 m 1498 3299 l 1493 3298 l 1485 3296 l 1474 3293 l 1460 3289 l
 1444 3286 l 1426 3283 l 1406 3281 l 1385 3281 l 1362 3282 l
 1336 3285 l 1307 3291 l 1275 3300 l 1247 3310 l 1222 3321 l
 1201 3331 l 1184 3340 l 1170 3347 l 1160 3353 l 1151 3358 l
 1144 3363 l 1137 3367 l 1129 3373 l 1120 3380 l 1109 3389 l
 1096 3401 l 1081 3415 l 1065 3432 l 1050 3450 l 1038 3468 l
 1029 3485 l 1023 3499 l 1019 3509 l 1018 3518 l 1017 3523 l
 1018 3528 l 1019 3531 l 1020 3535 l 1022 3539 l 1024 3544 l
 1027 3551 l 1031 3561 l 1035 3572 l 1042 3586 l 1050 3600 l
 1062 3615 l 1074 3628 l 1085 3637 l 1094 3644 l 1101 3650 l
 1107 3653 l 1113 3656 l 1118 3659 l 1125 3661 l 1134 3664 l
 1145 3668 l 1160 3671 l 1179 3674 l 1200 3675 l 1221 3674 l
 1240 3671 l 1256 3668 l 1268 3664 l 1278 3661 l 1287 3659 l
 1294 3656 l 1301 3653 l 1308 3650 l 1315 3644 l 1324 3637 l
 1334 3628 l 1343 3615 l 1350 3600 l 1353 3584 l 1353 3568 l
 1352 3555 l 1349 3545 l 1345 3537 l 1341 3531 l 1337 3525 l
 1333 3519 l 1328 3513 l 1321 3505 l 1313 3495 l 1303 3482 l
 1290 3466 l 1275 3450 l 1256 3433 l 1237 3418 l 1219 3407 l
 1201 3399 l 1185 3392 l 1170 3387 l 1155 3382 l 1143 3379 l
 1134 3377 l 1128 3376 l
 1125 3375 l gs col0 s gr 
/Times-Roman ff 180.00 scf sf
1425 3675 m
gs 1 -1 sc (Nbhab>1,000,000) col0 sh gr
/Times-Roman ff 180.00 scf sf
1725 2250 m
gs 1 -1 sc (#dept=num) col0 sh gr
/Times-Roman ff 180.00 scf sf
750 5400 m
gs 1 -1 sc (Communes) col0 sh gr
/Times-Roman ff 180.00 scf sf
3675 5400 m
gs 1 -1 sc (Departements) col0 sh gr
/Times-Roman ff 180.00 scf sf
2700 900 m
gs 1 -1 sc (Departements.nom) col0 sh gr
$F2psEnd
rs
