%!PS-Adobe-2.0 EPSF-2.0
%%Title: rtinsert.fig
%%Creator: fig2dev Version 3.2 Patchlevel 5-alpha5
%%CreationDate: Mon Sep 13 10:08:14 2004
%%For: philippe@pc (Philippe Rigaux)
%%BoundingBox: 0 0 97 94
%Magnification: 1.0000
%%EndComments
/$F2psDict 200 dict def
$F2psDict begin
$F2psDict /mtrx matrix put
/col-1 {0 setgray} bind def
/col0 {0.000 0.000 0.000 srgb} bind def
/col1 {0.000 0.000 1.000 srgb} bind def
/col2 {0.000 1.000 0.000 srgb} bind def
/col3 {0.000 1.000 1.000 srgb} bind def
/col4 {1.000 0.000 0.000 srgb} bind def
/col5 {1.000 0.000 1.000 srgb} bind def
/col6 {1.000 1.000 0.000 srgb} bind def
/col7 {1.000 1.000 1.000 srgb} bind def
/col8 {0.000 0.000 0.560 srgb} bind def
/col9 {0.000 0.000 0.690 srgb} bind def
/col10 {0.000 0.000 0.820 srgb} bind def
/col11 {0.530 0.810 1.000 srgb} bind def
/col12 {0.000 0.560 0.000 srgb} bind def
/col13 {0.000 0.690 0.000 srgb} bind def
/col14 {0.000 0.820 0.000 srgb} bind def
/col15 {0.000 0.560 0.560 srgb} bind def
/col16 {0.000 0.690 0.690 srgb} bind def
/col17 {0.000 0.820 0.820 srgb} bind def
/col18 {0.560 0.000 0.000 srgb} bind def
/col19 {0.690 0.000 0.000 srgb} bind def
/col20 {0.820 0.000 0.000 srgb} bind def
/col21 {0.560 0.000 0.560 srgb} bind def
/col22 {0.690 0.000 0.690 srgb} bind def
/col23 {0.820 0.000 0.820 srgb} bind def
/col24 {0.500 0.190 0.000 srgb} bind def
/col25 {0.630 0.250 0.000 srgb} bind def
/col26 {0.750 0.380 0.000 srgb} bind def
/col27 {1.000 0.500 0.500 srgb} bind def
/col28 {1.000 0.630 0.630 srgb} bind def
/col29 {1.000 0.750 0.750 srgb} bind def
/col30 {1.000 0.880 0.880 srgb} bind def
/col31 {1.000 0.840 0.000 srgb} bind def

end
save
newpath 0 94 moveto 0 0 lineto 97 0 lineto 97 94 lineto closepath clip newpath
-8.1 111.3 translate
1 -1 scale

/cp {closepath} bind def
/ef {eofill} bind def
/gr {grestore} bind def
/gs {gsave} bind def
/sa {save} bind def
/rs {restore} bind def
/l {lineto} bind def
/m {moveto} bind def
/rm {rmoveto} bind def
/n {newpath} bind def
/s {stroke} bind def
/sh {show} bind def
/slc {setlinecap} bind def
/slj {setlinejoin} bind def
/slw {setlinewidth} bind def
/srgb {setrgbcolor} bind def
/rot {rotate} bind def
/sc {scale} bind def
/sd {setdash} bind def
/ff {findfont} bind def
/sf {setfont} bind def
/scf {scalefont} bind def
/sw {stringwidth} bind def
/tr {translate} bind def
/tnt {dup dup currentrgbcolor
  4 -2 roll dup 1 exch sub 3 -1 roll mul add
  4 -2 roll dup 1 exch sub 3 -1 roll mul add
  4 -2 roll dup 1 exch sub 3 -1 roll mul add srgb}
  bind def
/shd {dup dup currentrgbcolor 4 -2 roll mul 4 -2 roll mul
  4 -2 roll mul srgb} bind def
/$F2psBegin {$F2psDict begin /$F2psEnteredState save def} def
/$F2psEnd {$F2psEnteredState restore end} def

$F2psBegin
10 setmiterlimit
0 slj 0 slc
 0.06000 0.06000 sc
%
% Fig objects follow
%
% 
% here starts figure with depth 105
% Polyline
0 slj
0 slc
7.500 slw
n 227 1277 m 452 1277 l 452 1352 l 227 1352 l
 cp gs col7 0.50 shd ef gr gs col0 s gr 
% Polyline
n 377 1277 m 527 1277 l 527 1427 l 377 1427 l
 cp gs col7 0.50 shd ef gr gs col0 s gr 
% Polyline
n 602 1127 m 752 1127 l 752 1427 l 602 1427 l
 cp gs col7 0.50 shd ef gr gs col0 s gr 
% Polyline
n 452 1052 m 677 1052 l 677 1202 l 452 1202 l
 cp gs col7 0.50 shd ef gr gs col0 s gr 
% Polyline
n 1201 676 m 1576 676 l 1576 751 l 1201 751 l
 cp gs col7 0.50 shd ef gr gs col0 s gr 
% Polyline
n 1275 675 m 1425 675 l 1425 1050 l 1275 1050 l
 cp gs col7 0.50 shd ef gr gs col0 s gr 
% Polyline
n 1201 451 m 1351 451 l 1351 601 l 1201 601 l
 cp gs col7 0.50 shd ef gr gs col0 s gr 
% Polyline
n 1276 376 m 1651 376 l 1651 526 l 1276 526 l
 cp gs col7 0.50 shd ef gr gs col0 s gr 
/Times-Roman ff 166.67 scf sf
150 1800 m
gs 1 -1 sc (Insertion du rectangle 8) col0 sh gr
% here ends figure;
% 
% here starts figure with depth 0
% Polyline
0 slj
0 slc
7.500 slw
 [60] 0 sd
n 421 331 m 1680 331 l 1680 1246 l 421 1246 l
 cp gs col-1 s gr  [] 0 sd
% Polyline
 [60] 0 sd
n 202 1111 m 795 1111 l 795 1456 l 202 1456 l
 cp gs col-1 s gr  [] 0 sd
% Polyline
n 152 302 m 1727 302 l 1727 1502 l 152 1502 l
 cp gs col-1 s gr 
/Times-Italic ff 166.67 scf sf
226 1051 m
gs 1 -1 sc (u) col-1 sh gr
/Times-Italic ff 166.67 scf sf
301 526 m
gs 1 -1 sc (v) col-1 sh gr
/Times-Italic ff 166.67 scf sf
1125 1050 m
gs 1 -1 sc (8) col-1 sh gr
/Times-Italic ff 166.67 scf sf
577 1005 m
gs 1 -1 sc (4) col-1 sh gr
% here ends figure;
$F2psEnd
rs
showpage
%%Trailer
%EOF
