#FIG 3.2
Portrait
Center
Inches
A4      
100.00
Single
-2
1200 2
6 300 1350 1125 2325
2 1 0 1 0 7 50 0 -1 0.000 0 0 -1 0 0 2
	 300 1725 1050 1725
2 4 0 1 -1 7 0 0 -1 0.000 0 0 5 0 0 5
	 1050 2325 1050 1501 300 1501 300 2325 1050 2325
4 0 0 50 0 0 10 0.0000 4 45 75 750 1500 *\001
4 0 -1 0 0 0 10 0.0000 4 105 315 450 1650 Salle\001
4 0 -1 0 0 0 10 0.0000 4 150 465 375 1950 capacit\351\001
4 0 0 50 0 0 10 0.0000 4 105 735 375 2175 dateConstr.\001
-6
6 1800 0 2625 900
2 1 0 1 0 7 50 0 -1 0.000 0 0 -1 0 0 2
	 1800 225 2625 225
2 4 0 1 -1 7 0 0 -1 0.000 0 0 5 0 0 5
	 2625 900 2625 1 1800 1 1800 900 2625 900
4 0 -1 0 0 0 10 0.0000 4 105 480 1950 150 Horaire\001
4 0 0 50 0 0 10 0.0000 4 150 675 1875 600 heureD\351but\001
4 0 0 50 0 0 10 0.0000 4 105 540 1875 750 heureFin\001
4 0 0 50 0 2 10 0.0000 4 120 135 1875 450 id\001
-6
6 3375 1500 4125 2400
2 1 0 1 0 7 50 0 -1 0.000 0 0 -1 0 0 2
	 3375 1725 4125 1725
2 4 0 1 -1 7 0 0 -1 0.000 0 0 5 0 0 5
	 4125 2400 4125 1501 3375 1501 3375 2400 4125 2400
4 0 0 50 0 0 10 0.0000 4 105 315 3600 1650 Film\001
4 0 0 50 0 2 10 0.0000 4 120 135 3450 1875 id\001
4 0 0 50 0 0 10 0.0000 4 105 285 3450 2025 titre\001
4 0 0 50 0 0 10 0.0000 4 150 330 3450 2175 ann\351e\001
4 0 0 50 0 0 10 0.0000 4 105 330 3450 2325 genre\001
-6
2 1 0 1 -1 7 0 0 -1 0.000 0 0 -1 0 0 2
	 300 225 1125 225
2 4 0 1 -1 7 0 0 -1 0.000 0 0 7 0 0 5
	 1125 975 1125 0 300 0 300 975 1125 975
2 2 0 1 0 7 50 0 -1 0.000 0 0 -1 0 0 5
	 600 975 825 975 825 1200 600 1200 600 975
2 1 0 1 0 7 50 0 -1 0.000 0 0 -1 0 0 2
	 675 1200 675 1500
2 1 0 1 0 7 50 0 -1 0.000 0 0 -1 0 0 2
	 1800 1875 1050 1875
2 1 0 1 0 7 50 0 -1 0.000 0 0 -1 0 0 2
	 2100 1500 2100 900
2 4 0 1 -1 7 0 0 -1 0.000 0 0 5 0 0 5
	 2625 2400 2625 1501 1800 1501 1800 2400 2625 2400
2 1 0 1 0 7 50 0 -1 0.000 0 0 -1 0 0 2
	 1800 1725 2625 1725
2 1 0 1 0 7 50 0 -1 0.000 0 0 -1 0 0 2
	 2625 1875 3375 1875
4 0 -1 0 0 0 10 0.0000 4 150 465 375 150 Cin\351ma\001
4 0 0 50 0 2 10 0.0000 4 75 300 375 450 nom\001
4 0 -1 0 0 0 10 0.0000 4 105 300 375 600 ville\001
4 0 0 50 0 0 10 0.0000 4 75 195 375 750 rue\001
4 0 0 50 0 0 10 0.0000 4 150 435 375 900 num\351ro\001
4 0 0 50 0 2 10 0.0000 4 75 180 645 1133 no\001
4 0 0 50 0 2 10 0.0000 4 120 135 1875 1950 id\001
4 0 0 50 0 0 10 0.0000 4 105 285 1875 2175 tarif\001
4 0 0 50 0 2 10 0.0000 4 150 390 1875 1650 S\351ance\001
4 0 0 50 0 0 10 0.0000 4 105 240 1125 1800 1..1\001
4 0 0 50 0 0 10 0.0000 4 45 75 1650 1800 *\001
4 0 0 50 0 0 10 0.0000 4 105 240 2175 1050 1..1\001
4 0 0 50 0 0 10 0.0000 4 45 75 2700 1800 *\001
4 0 0 50 0 0 10 0.0000 4 105 240 3150 1800 1..1\001
4 0 0 50 0 0 10 0.0000 4 45 75 2175 1425 *\001
