#FIG 3.2
Portrait
Center
Inches
Letter  
100.00
Single
-2
1200 2
6 4125 3450 5025 3975
1 2 0 1 -1 7 0 0 -1 0.000 1 0.0000 4575 3825 449 149 4126 3676 5025 3975
2 1 0 1 -1 7 0 0 -1 0.000 0 0 -1 1 0 2
	1 1 1.00 60.00 120.00
	 4575 3676 4575 3451
4 0 0 50 0 1 10 0.0000 4 105 225 4425 3900 TRI\001
-6
6 975 3450 1875 3975
1 2 0 1 -1 7 0 0 -1 0.000 1 0.0000 1425 3825 449 149 976 3676 1875 3975
2 1 0 1 -1 7 0 0 -1 0.000 0 0 -1 1 0 2
	1 1 1.00 60.00 120.00
	 1425 3676 1425 3451
4 0 0 50 0 1 10 0.0000 4 105 225 1275 3900 TRI\001
-6
1 2 0 1 -1 7 0 0 -1 0.000 1 0.0000 3300 1350 449 149 2851 1201 3750 1500
2 1 0 1 -1 7 0 0 -1 0.000 0 0 -1 1 0 2
	1 1 1.00 60.00 120.00
	 2250 1650 2850 1350
2 1 0 1 -1 7 0 0 -1 0.000 0 0 -1 0 1 2
	1 1 1.00 60.00 120.00
	 3750 1350 4425 1575
2 1 0 1 -1 7 0 0 -1 0.000 0 0 -1 1 0 2
	1 1 1.00 60.00 120.00
	 3301 1201 3301 976
4 0 -1 0 0 0 12 0.0000 4 15 90 900 375   \001
4 0 0 50 0 1 10 0.0000 4 105 1590 2475 225 Allen Annie Hall        1977\001
4 0 0 50 0 1 10 0.0000 4 150 1815 2400 450 Spielberg Jurassic Park  1992\001
4 0 0 50 0 1 10 0.0000 4 105 1605 2475 675 Allen Manhattan        1979\001
4 0 -1 0 0 2 12 0.0000 4 30 240 3225 825 ....\001
4 0 0 50 0 1 10 0.0000 4 105 525 3075 1425 FUSION\001
4 0 0 50 0 1 10 0.0000 4 105 1500 900 1800 Allen                Annie Hall\001
4 0 0 50 0 1 10 0.0000 4 150 1485 825 2475 Lang                Metropolis\001
4 0 0 50 0 1 10 0.0000 4 150 1440 825 2700 Hitchcock       Psychose\001
4 0 0 50 0 1 10 0.0000 4 150 1665 825 2025 Spielberg        Jurassic Park\001
4 0 0 50 0 1 10 0.0000 4 105 1545 825 2250  Allen                Manhattan\001
4 0 0 50 0 1 10 0.0000 4 150 1275 825 2925 Kubrik             Shining\001
4 0 0 50 0 1 10 0.0000 4 150 1335 825 3150 Hitchcock        Vertigo\001
4 0 0 50 0 1 10 0.0000 4 105 1215 4050 1800 Annie Hall        1977\001
4 0 0 50 0 1 10 0.0000 4 105 1155 4050 2025 Brazil                1984\001
4 0 0 50 0 1 10 0.0000 4 150 1065 4050 2250 Easy Rider   1969\001
4 0 0 50 0 1 10 0.0000 4 150 1110 4050 2475 Greystoke     1984\001
4 0 0 50 0 1 10 0.0000 4 105 1200 4050 2700 Jurassic Park  1992\001
4 0 0 50 0 1 10 0.0000 4 105 1080 4050 2925 Manhattan   1979\001
4 0 0 50 0 1 10 0.0000 4 150 1125 4050 3150 Metropolis    1926\001
4 0 0 50 0 1 10 0.0000 4 150 1095 4050 3375 Psychose       1960\001
4 0 0 50 0 1 10 0.0000 4 105 1050 1050 4200 Fichiers Artistes\001
4 0 0 50 0 1 10 0.0000 4 150 795 4200 4200 Fichier films\001
