#FIG 3.1
Portrait
Center
Inches
1200 2
6 3074 150 4724 450
2 2 0 1 -1 7 1 0 -1 0.000 0 0 0 0 0 5
	 3076 152 4651 152 4651 377 3076 377 3076 152
2 1 0 1 -1 7 1 0 -1 0.000 0 0 -1 0 0 2
	 4351 152 4351 377
4 0 -1 1 0 0 10 0.0000000 4 60 75 4426 302 *\001
-6
6 4875 1050 6075 1350
6 4876 1050 6001 1350
6 4876 1050 6001 1350
2 1 0 1 -1 7 1 0 -1 0.000 0 0 -1 0 0 2
	 5627 1052 5627 1276
2 1 0 1 -1 7 1 0 -1 0.000 0 0 -1 0 0 2
	 5777 1052 5777 1276
2 2 0 1 -1 7 1 0 -1 0.000 0 0 0 0 0 5
	 4877 1052 5927 1052 5927 1276 4877 1276 4877 1052
4 0 -1 1 0 0 10 0.0000000 4 135 615 4952 1201 Rossignol\001
-6
-6
-6
6 1800 1050 3000 1350
2 2 0 1 -1 7 1 0 -1 0.000 0 0 0 0 0 5
	 1801 1051 2926 1051 2926 1276 1801 1276 1801 1051
2 1 0 1 -1 7 1 0 -1 0.000 0 0 -1 0 0 2
	 2626 1052 2626 1276
2 1 0 1 -1 7 1 0 -1 0.000 0 0 -1 0 0 2
	 2776 1052 2776 1276
4 0 -1 1 0 0 10 0.0000000 4 105 645 1876 1201 Charles IX\001
-6
6 2175 1725 3600 2025
2 2 0 1 -1 7 1 0 -1 0.000 0 0 0 0 0 5
	 2179 1726 3526 1726 3526 1951 2179 1951 2179 1726
2 1 0 1 -1 7 1 0 -1 0.000 0 0 -1 0 0 2
	 3376 1727 3376 1951
4 0 -1 1 0 0 10 0.0000000 4 135 1020 2251 1876 La Reine Margot\001
-6
6 600 1725 1575 2025
2 2 0 1 -1 7 1 0 -1 0.000 0 0 0 0 0 5
	 601 1726 1573 1726 1573 1951 601 1951 601 1726
2 1 0 1 -1 7 1 0 -1 0.000 0 0 -1 0 0 2
	 1276 1727 1276 1951
4 0 -1 1 0 0 10 0.0000000 4 105 495 676 1876 Adele H\001
-6
2 2 0 1 -1 7 1 0 -1 0.000 0 0 0 0 0 5
	 1200 150 2775 150 2775 375 1200 375 1200 150
2 1 0 1 -1 7 1 0 -1 0.000 0 0 -1 0 0 2
	 2551 151 2551 376
2 1 0 1 -1 7 1 0 -1 0.000 0 0 -1 0 0 2
	 1275 1051 1275 1275
2 1 0 1 -1 7 1 0 -1 0.000 0 0 -1 0 0 2
	 1125 1053 1125 1277
2 2 0 1 -1 7 1 0 -1 0.000 0 0 0 0 0 5
	 603 1053 1425 1053 1425 1275 603 1275 603 1053
2 1 0 1 -1 7 1 0 -1 0.000 0 0 -1 0 0 2
	 4125 1051 4125 1275
2 1 0 1 -1 7 1 0 -1 0.000 0 0 -1 0 0 2
	 4275 1051 4275 1275
2 2 0 1 -1 7 1 0 -1 0.000 0 0 0 0 0 5
	 3300 1050 4425 1050 4425 1275 3300 1275 3300 1050
2 2 0 1 -1 7 1 0 -1 0.000 0 0 0 0 0 5
	 3975 1725 5247 1725 5247 1950 3975 1950 3975 1725
2 1 0 1 -1 7 1 0 -1 0.000 0 0 -1 0 0 2
	 5100 1726 5100 1950
2 1 0 1 -1 7 1 0 -1 0.000 0 0 -1 1 0 4
	1 1 1.00 60.00 120.00
	 2625 300 2625 525 675 525 675 1050
2 1 0 1 -1 7 1 0 -1 0.000 0 0 -1 1 0 4
	1 1 1.00 60.00 120.00
	 1200 1200 1200 1425 3450 1425 3450 1275
2 1 0 1 -1 7 1 0 -1 0.000 0 0 -1 1 0 5
	1 1 1.00 60.00 120.00
	 4200 1050 4200 825 2850 825 2775 825 2775 375
2 1 0 1 -1 7 1 0 -1 0.000 0 0 -1 0 0 4
	 4500 300 4500 675 2025 675 2025 1050
2 1 0 1 -1 7 1 0 -1 0.000 0 0 -1 0 0 4
	 2700 1125 2700 900 5100 900 5100 1050
2 1 0 1 -1 7 1 0 -1 0.000 0 0 -1 0 0 3
	 5700 1125 5700 225 4650 225
2 1 0 1 -1 7 1 0 -1 0.000 0 0 -1 0 0 4
	 2850 1125 2850 1500 3825 1500 3825 1275
2 1 0 1 -1 7 1 0 -1 0.000 0 0 -1 1 0 2
	1 1 1.00 60.00 120.00
	 5175 1800 5175 1275
2 1 0 1 -1 7 1 0 -1 0.000 0 0 -1 0 0 3
	 5850 1125 5850 1875 5250 1875
2 1 0 1 -1 7 1 0 -1 0.000 0 0 -1 1 0 4
	1 1 1.00 60.00 120.00
	 3450 1800 3450 1575 2100 1575 2100 1275
2 1 0 1 -1 7 1 0 -1 0.000 0 0 -1 1 0 5
	1 1 1.00 60.00 120.00
	 4350 1125 4350 1575 3675 1575 3675 1800 3525 1800
2 1 0 1 -1 7 1 0 -1 0.000 0 0 -1 1 0 4
	1 1 1.00 60.00 120.00
	 1425 1800 1425 1575 825 1575 825 1275
2 1 0 1 -1 7 1 0 -1 0.000 0 0 -1 1 0 4
	1 1 1.00 60.00 120.00
	 1350 1200 1725 1200 1725 1875 1575 1875
4 0 -1 1 0 0 10 0.0000000 4 135 405 1275 300 Adjani\001
4 0 -1 1 0 0 10 0.0000000 4 135 495 3150 300 Anglade\001
4 0 -1 1 0 0 10 0.0000000 4 105 345 675 1200 Adele\001
4 0 -1 1 0 0 10 0.0000000 4 135 645 3375 1200 Marguerite\001
4 0 -1 1 0 0 10 0.0000000 4 105 960 4050 1875 Nocturne indien\001
