\relax 
\providecommand*\new@tpo@label[2]{}
\catcode `:\active 
\catcode `;\active 
\catcode `!\active 
\catcode `?\active 
\select@language{french}
\@writefile{toc}{\select@language{french}}
\@writefile{lof}{\select@language{french}}
\@writefile{lot}{\select@language{french}}
\@writefile{toc}{\contentsline {section}{\numberline {1}Portes logique}{1}}
\@writefile{toc}{\contentsline {subsection}{\numberline {1.1}R\IeC {\'e}alisation des portes logiques}{1}}
\@writefile{toc}{\contentsline {paragraph}{\nonumberline Repr\IeC {\'e}sentation des valeurs logiques}{1}}
\@writefile{toc}{\contentsline {paragraph}{\nonumberline \`A l'aide de transistors}{1}}
\@writefile{toc}{\contentsline {paragraph}{\nonumberline \`A l'aide de tubes \IeC {\`a} vide}{2}}
\@writefile{toc}{\contentsline {paragraph}{\nonumberline Circuits int\IeC {\'e}gr\IeC {\'e}s}{2}}
\@writefile{toc}{\contentsline {section}{\numberline {2}Circuits pour r\IeC {\'e}aliser l'arithm\IeC {\'e}tique binaire}{2}}
\@writefile{toc}{\contentsline {subsection}{\numberline {2.1}Demi-additionneur}{2}}
\@writefile{toc}{\contentsline {subsection}{\numberline {2.2}Additionneur}{2}}
\@writefile{toc}{\contentsline {subsection}{\numberline {2.3}D\IeC {\'e}calage}{4}}
\@writefile{toc}{\contentsline {subsection}{\numberline {2.4}ALU simplifi\IeC {\'e}e (1 bit)}{5}}
\@writefile{toc}{\contentsline {section}{\numberline {3}Circuits pour r\IeC {\'e}aliser des m\IeC {\'e}moires}{6}}
\@writefile{toc}{\contentsline {subsection}{\numberline {3.1}Horloges}{6}}
\@writefile{toc}{\contentsline {subsection}{\numberline {3.2}Bascules}{6}}
\@writefile{toc}{\contentsline {paragraph}{\nonumberline Principe de base}{6}}
\@writefile{toc}{\contentsline {paragraph}{\nonumberline Bascule avec horloge}{7}}
\@writefile{toc}{\contentsline {paragraph}{\nonumberline Bistable $D$}{7}}
\@writefile{toc}{\contentsline {subsection}{\numberline {3.3}Flip-flops}{7}}
\@writefile{toc}{\contentsline {subsection}{\numberline {3.4}Exemple de m\IeC {\'e}moire et types de m\IeC {\'e}moires}{8}}
\@writefile{toc}{\contentsline {paragraph}{\nonumberline Autre type d'organisation des m\IeC {\'e}moires}{8}}
